USD-US-SPX,01-Jan-2008,1468.36
USD-US-SPX,02-Jan-2008,1447.16
USD-US-SPX,03-Jan-2008,1447.16
USD-US-SPX,04-Jan-2008,1411.63
USD-US-SPX,07-Jan-2008,1416.18
USD-US-SPX,08-Jan-2008,1390.19
USD-US-SPX,09-Jan-2008,1409.13
USD-US-SPX,10-Jan-2008,1420.33
USD-US-SPX,11-Jan-2008,1401.02
USD-US-SPX,14-Jan-2008,1416.25
USD-US-SPX,15-Jan-2008,1380.95
USD-US-SPX,16-Jan-2008,1373.2
USD-US-SPX,17-Jan-2008,1333.25
USD-US-SPX,18-Jan-2008,1325.19
USD-US-SPX,21-Jan-2008,1325.19
USD-US-SPX,22-Jan-2008,1310.5
USD-US-SPX,23-Jan-2008,1338.6
USD-US-SPX,24-Jan-2008,1352.07
USD-US-SPX,25-Jan-2008,1330.61
USD-US-SPX,28-Jan-2008,1353.97
USD-US-SPX,29-Jan-2008,1362.3
USD-US-SPX,30-Jan-2008,1355.81
USD-US-SPX,31-Jan-2008,1378.55
USD-US-SPX,01-Feb-2008,1395.41
USD-US-SPX,04-Feb-2008,1380.82
USD-US-SPX,05-Feb-2008,1336.64
USD-US-SPX,06-Feb-2008,1326.45
USD-US-SPX,07-Feb-2008,1336.91
USD-US-SPX,08-Feb-2008,1331.29
USD-US-SPX,11-Feb-2008,1339.13
USD-US-SPX,12-Feb-2008,1348.86
USD-US-SPX,13-Feb-2008,1367.21
USD-US-SPX,14-Feb-2008,1348.86
USD-US-SPX,15-Feb-2008,1350.0
USD-US-SPX,18-Feb-2008,1350.0
USD-US-SPX,19-Feb-2008,1348.78
USD-US-SPX,20-Feb-2008,1360.03
USD-US-SPX,21-Feb-2008,1342.53
USD-US-SPX,22-Feb-2008,1353.11
USD-US-SPX,25-Feb-2008,1371.8
USD-US-SPX,26-Feb-2008,1381.29
USD-US-SPX,27-Feb-2008,1380.02
USD-US-SPX,28-Feb-2008,1367.68
USD-US-SPX,29-Feb-2008,1330.63
USD-US-SPX,03-Mar-2008,1331.34
USD-US-SPX,04-Mar-2008,1326.75
USD-US-SPX,05-Mar-2008,1333.7
USD-US-SPX,06-Mar-2008,1304.34
USD-US-SPX,07-Mar-2008,1293.37
USD-US-SPX,10-Mar-2008,1273.37
USD-US-SPX,11-Mar-2008,1320.65
USD-US-SPX,12-Mar-2008,1308.77
USD-US-SPX,13-Mar-2008,1315.48
USD-US-SPX,14-Mar-2008,1288.14
USD-US-SPX,17-Mar-2008,1276.6
USD-US-SPX,18-Mar-2008,1330.74
USD-US-SPX,19-Mar-2008,1298.42
USD-US-SPX,20-Mar-2008,1329.51
USD-US-SPX,21-Mar-2008,1329.51
USD-US-SPX,24-Mar-2008,1349.88
USD-US-SPX,25-Mar-2008,1352.98
USD-US-SPX,26-Mar-2008,1341.13
USD-US-SPX,27-Mar-2008,1325.76
USD-US-SPX,28-Mar-2008,1315.22
USD-US-SPX,31-Mar-2008,1322.7
USD-US-SPX,01-Apr-2008,1370.18
USD-US-SPX,02-Apr-2008,1367.53
USD-US-SPX,03-Apr-2008,1369.31
USD-US-SPX,04-Apr-2008,1370.4
USD-US-SPX,07-Apr-2008,1372.54
USD-US-SPX,08-Apr-2008,1365.54
USD-US-SPX,09-Apr-2008,1354.49
USD-US-SPX,10-Apr-2008,1360.55
USD-US-SPX,11-Apr-2008,1332.83
USD-US-SPX,14-Apr-2008,1328.32
USD-US-SPX,15-Apr-2008,1334.43
USD-US-SPX,16-Apr-2008,1364.71
USD-US-SPX,17-Apr-2008,1365.56
USD-US-SPX,18-Apr-2008,1390.33
USD-US-SPX,21-Apr-2008,1388.17
USD-US-SPX,22-Apr-2008,1375.94
USD-US-SPX,23-Apr-2008,1379.93
USD-US-SPX,24-Apr-2008,1388.82
USD-US-SPX,25-Apr-2008,1397.84
USD-US-SPX,28-Apr-2008,1396.37
USD-US-SPX,29-Apr-2008,1390.94
USD-US-SPX,30-Apr-2008,1385.59
USD-US-SPX,01-May-2008,1409.34
USD-US-SPX,02-May-2008,1413.9
USD-US-SPX,05-May-2008,1407.49
USD-US-SPX,06-May-2008,1418.26
USD-US-SPX,07-May-2008,1392.57
USD-US-SPX,08-May-2008,1397.68
USD-US-SPX,09-May-2008,1388.28
USD-US-SPX,12-May-2008,1403.58
USD-US-SPX,13-May-2008,1403.04
USD-US-SPX,14-May-2008,1408.66
USD-US-SPX,15-May-2008,1423.57
USD-US-SPX,16-May-2008,1425.35
USD-US-SPX,19-May-2008,1426.63
USD-US-SPX,20-May-2008,1413.4
USD-US-SPX,21-May-2008,1390.71
USD-US-SPX,22-May-2008,1394.35
USD-US-SPX,23-May-2008,1375.93
USD-US-SPX,26-May-2008,1375.93
USD-US-SPX,27-May-2008,1385.35
USD-US-SPX,28-May-2008,1390.84
USD-US-SPX,29-May-2008,1398.26
USD-US-SPX,30-May-2008,1400.38
USD-US-SPX,02-Jun-2008,1385.67
USD-US-SPX,03-Jun-2008,1377.65
USD-US-SPX,04-Jun-2008,1377.2
USD-US-SPX,05-Jun-2008,1404.05
USD-US-SPX,06-Jun-2008,1360.68
USD-US-SPX,09-Jun-2008,1361.76
USD-US-SPX,10-Jun-2008,1358.44
USD-US-SPX,11-Jun-2008,1335.49
USD-US-SPX,12-Jun-2008,1339.87
USD-US-SPX,13-Jun-2008,1360.03
USD-US-SPX,16-Jun-2008,1360.14
USD-US-SPX,17-Jun-2008,1350.93
USD-US-SPX,18-Jun-2008,1337.81
USD-US-SPX,19-Jun-2008,1342.83
USD-US-SPX,20-Jun-2008,1317.93
USD-US-SPX,23-Jun-2008,1318.0
USD-US-SPX,24-Jun-2008,1314.29
USD-US-SPX,25-Jun-2008,1321.97
USD-US-SPX,26-Jun-2008,1283.15
USD-US-SPX,27-Jun-2008,1278.38
USD-US-SPX,30-Jun-2008,1280.0
USD-US-SPX,01-Jul-2008,1284.91
USD-US-SPX,02-Jul-2008,1261.52
USD-US-SPX,03-Jul-2008,1262.9
USD-US-SPX,04-Jul-2008,1262.9
USD-US-SPX,07-Jul-2008,1252.31
USD-US-SPX,08-Jul-2008,1273.7
USD-US-SPX,09-Jul-2008,1244.69
USD-US-SPX,10-Jul-2008,1253.39
USD-US-SPX,11-Jul-2008,1239.49
USD-US-SPX,14-Jul-2008,1228.3
USD-US-SPX,15-Jul-2008,1214.91
USD-US-SPX,16-Jul-2008,1245.36
USD-US-SPX,17-Jul-2008,1260.32
USD-US-SPX,18-Jul-2008,1260.68
USD-US-SPX,21-Jul-2008,1260.0
USD-US-SPX,22-Jul-2008,1277.0
USD-US-SPX,23-Jul-2008,1282.19
USD-US-SPX,24-Jul-2008,1252.54
USD-US-SPX,25-Jul-2008,1257.76
USD-US-SPX,28-Jul-2008,1234.37
USD-US-SPX,29-Jul-2008,1263.2
USD-US-SPX,30-Jul-2008,1284.26
USD-US-SPX,31-Jul-2008,1267.38
USD-US-SPX,01-Aug-2008,1260.31
USD-US-SPX,04-Aug-2008,1249.02
USD-US-SPX,05-Aug-2008,1284.88
USD-US-SPX,06-Aug-2008,1289.19
USD-US-SPX,07-Aug-2008,1266.07
USD-US-SPX,08-Aug-2008,1296.32
USD-US-SPX,11-Aug-2008,1305.32
USD-US-SPX,12-Aug-2008,1289.59
USD-US-SPX,13-Aug-2008,1285.83
USD-US-SPX,14-Aug-2008,1292.93
USD-US-SPX,15-Aug-2008,1298.2
USD-US-SPX,18-Aug-2008,1278.6
USD-US-SPX,19-Aug-2008,1266.69
USD-US-SPX,20-Aug-2008,1274.54
USD-US-SPX,21-Aug-2008,1277.72
USD-US-SPX,22-Aug-2008,1292.2
USD-US-SPX,25-Aug-2008,1266.84
USD-US-SPX,26-Aug-2008,1271.51
USD-US-SPX,27-Aug-2008,1281.66
USD-US-SPX,28-Aug-2008,1300.68
USD-US-SPX,29-Aug-2008,1282.83
USD-US-SPX,01-Sep-2008,1282.83
USD-US-SPX,02-Sep-2008,1277.58
USD-US-SPX,03-Sep-2008,1274.98
USD-US-SPX,04-Sep-2008,1236.83
USD-US-SPX,05-Sep-2008,1242.31
USD-US-SPX,08-Sep-2008,1267.79
USD-US-SPX,09-Sep-2008,1224.51
USD-US-SPX,10-Sep-2008,1232.04
USD-US-SPX,11-Sep-2008,1249.05
USD-US-SPX,12-Sep-2008,1251.7
USD-US-SPX,15-Sep-2008,1192.7
USD-US-SPX,16-Sep-2008,1213.59
USD-US-SPX,17-Sep-2008,1156.39
USD-US-SPX,18-Sep-2008,1206.52
USD-US-SPX,19-Sep-2008,1255.08
USD-US-SPX,22-Sep-2008,1207.09
USD-US-SPX,23-Sep-2008,1188.22
USD-US-SPX,24-Sep-2008,1185.87
USD-US-SPX,25-Sep-2008,1209.18
USD-US-SPX,26-Sep-2008,1213.01
USD-US-SPX,29-Sep-2008,1106.39
USD-US-SPX,30-Sep-2008,1166.36
USD-US-SPX,01-Oct-2008,1161.07
USD-US-SPX,02-Oct-2008,1114.28
USD-US-SPX,03-Oct-2008,1099.23
USD-US-SPX,06-Oct-2008,1056.89
USD-US-SPX,07-Oct-2008,996.23
USD-US-SPX,08-Oct-2008,984.94
USD-US-SPX,09-Oct-2008,909.92
USD-US-SPX,10-Oct-2008,899.22
USD-US-SPX,13-Oct-2008,1003.35
USD-US-SPX,14-Oct-2008,998.01
USD-US-SPX,15-Oct-2008,907.84
USD-US-SPX,16-Oct-2008,946.43
USD-US-SPX,17-Oct-2008,940.55
USD-US-SPX,20-Oct-2008,985.4
USD-US-SPX,21-Oct-2008,955.05
USD-US-SPX,22-Oct-2008,896.78
USD-US-SPX,23-Oct-2008,908.11
USD-US-SPX,24-Oct-2008,876.77
USD-US-SPX,27-Oct-2008,848.92
USD-US-SPX,28-Oct-2008,940.51
USD-US-SPX,29-Oct-2008,930.09
USD-US-SPX,30-Oct-2008,954.09
USD-US-SPX,31-Oct-2008,968.75
USD-US-SPX,03-Nov-2008,966.3
USD-US-SPX,04-Nov-2008,1005.75
USD-US-SPX,05-Nov-2008,952.77
USD-US-SPX,06-Nov-2008,904.88
USD-US-SPX,07-Nov-2008,930.99
USD-US-SPX,10-Nov-2008,919.21
USD-US-SPX,11-Nov-2008,898.95
USD-US-SPX,12-Nov-2008,852.3
USD-US-SPX,13-Nov-2008,911.29
USD-US-SPX,14-Nov-2008,873.29
USD-US-SPX,17-Nov-2008,850.75
USD-US-SPX,18-Nov-2008,859.12
USD-US-SPX,19-Nov-2008,806.58
USD-US-SPX,20-Nov-2008,752.44
USD-US-SPX,21-Nov-2008,800.03
USD-US-SPX,24-Nov-2008,851.81
USD-US-SPX,25-Nov-2008,857.39
USD-US-SPX,26-Nov-2008,887.68
USD-US-SPX,27-Nov-2008,887.68
USD-US-SPX,28-Nov-2008,896.24
USD-US-SPX,01-Dec-2008,816.21
USD-US-SPX,02-Dec-2008,848.81
USD-US-SPX,03-Dec-2008,870.74
USD-US-SPX,04-Dec-2008,845.22
USD-US-SPX,05-Dec-2008,876.07
USD-US-SPX,08-Dec-2008,909.7
USD-US-SPX,09-Dec-2008,888.67
USD-US-SPX,10-Dec-2008,899.24
USD-US-SPX,11-Dec-2008,873.59
USD-US-SPX,12-Dec-2008,879.73
USD-US-SPX,15-Dec-2008,868.57
USD-US-SPX,16-Dec-2008,913.18
USD-US-SPX,17-Dec-2008,904.42
USD-US-SPX,18-Dec-2008,885.28
USD-US-SPX,19-Dec-2008,887.88
USD-US-SPX,22-Dec-2008,871.63
USD-US-SPX,23-Dec-2008,863.16
USD-US-SPX,24-Dec-2008,868.15
USD-US-SPX,25-Dec-2008,868.15
USD-US-SPX,26-Dec-2008,872.8
USD-US-SPX,29-Dec-2008,869.42
USD-US-SPX,30-Dec-2008,890.64
USD-US-SPX,31-Dec-2008,903.25
USD-US-SPX,01-Jan-2009,903.25
USD-US-SPX,02-Jan-2009,931.8
USD-US-SPX,05-Jan-2009,927.45
USD-US-SPX,06-Jan-2009,934.7
USD-US-SPX,07-Jan-2009,906.65
USD-US-SPX,08-Jan-2009,909.73
USD-US-SPX,09-Jan-2009,890.35
USD-US-SPX,12-Jan-2009,870.26
USD-US-SPX,13-Jan-2009,871.79
USD-US-SPX,14-Jan-2009,842.62
USD-US-SPX,15-Jan-2009,843.74
USD-US-SPX,16-Jan-2009,850.12
USD-US-SPX,19-Jan-2009,850.12
USD-US-SPX,20-Jan-2009,805.22
USD-US-SPX,21-Jan-2009,840.24
USD-US-SPX,22-Jan-2009,827.5
USD-US-SPX,23-Jan-2009,831.95
USD-US-SPX,26-Jan-2009,836.57
USD-US-SPX,27-Jan-2009,845.71
USD-US-SPX,28-Jan-2009,874.09
USD-US-SPX,29-Jan-2009,845.14
USD-US-SPX,30-Jan-2009,825.88
USD-US-SPX,02-Feb-2009,825.44
USD-US-SPX,03-Feb-2009,838.51
USD-US-SPX,04-Feb-2009,832.23
USD-US-SPX,05-Feb-2009,845.85
USD-US-SPX,06-Feb-2009,868.6
USD-US-SPX,09-Feb-2009,869.89
USD-US-SPX,10-Feb-2009,827.16
USD-US-SPX,11-Feb-2009,833.74
USD-US-SPX,12-Feb-2009,835.19
USD-US-SPX,13-Feb-2009,826.84
USD-US-SPX,16-Feb-2009,826.84
USD-US-SPX,17-Feb-2009,789.17
USD-US-SPX,18-Feb-2009,788.42
USD-US-SPX,19-Feb-2009,778.94
USD-US-SPX,20-Feb-2009,770.05
USD-US-SPX,23-Feb-2009,743.33
USD-US-SPX,24-Feb-2009,773.14
USD-US-SPX,25-Feb-2009,764.9
USD-US-SPX,26-Feb-2009,752.83
USD-US-SPX,27-Feb-2009,735.09
USD-US-SPX,02-Mar-2009,700.82
USD-US-SPX,03-Mar-2009,696.33
USD-US-SPX,04-Mar-2009,712.87
USD-US-SPX,05-Mar-2009,682.55
USD-US-SPX,06-Mar-2009,683.38
USD-US-SPX,09-Mar-2009,676.53
USD-US-SPX,10-Mar-2009,719.6
USD-US-SPX,11-Mar-2009,721.36
USD-US-SPX,12-Mar-2009,750.74
USD-US-SPX,13-Mar-2009,756.55
USD-US-SPX,16-Mar-2009,753.89
USD-US-SPX,17-Mar-2009,778.12
USD-US-SPX,18-Mar-2009,794.35
USD-US-SPX,19-Mar-2009,784.04
USD-US-SPX,20-Mar-2009,768.54
USD-US-SPX,23-Mar-2009,822.92
USD-US-SPX,24-Mar-2009,806.12
USD-US-SPX,25-Mar-2009,813.88
USD-US-SPX,26-Mar-2009,832.86
USD-US-SPX,27-Mar-2009,815.94
USD-US-SPX,30-Mar-2009,787.53
USD-US-SPX,31-Mar-2009,797.87
USD-US-SPX,01-Apr-2009,811.08
USD-US-SPX,02-Apr-2009,834.38
USD-US-SPX,03-Apr-2009,842.5
USD-US-SPX,06-Apr-2009,835.48
USD-US-SPX,07-Apr-2009,815.55
USD-US-SPX,08-Apr-2009,825.16
USD-US-SPX,09-Apr-2009,856.56
USD-US-SPX,10-Apr-2009,856.56
USD-US-SPX,13-Apr-2009,858.73
USD-US-SPX,14-Apr-2009,841.5
USD-US-SPX,15-Apr-2009,852.06
USD-US-SPX,16-Apr-2009,865.3
USD-US-SPX,17-Apr-2009,869.6
USD-US-SPX,20-Apr-2009,832.39
USD-US-SPX,21-Apr-2009,850.08
USD-US-SPX,22-Apr-2009,843.55
USD-US-SPX,23-Apr-2009,851.92
USD-US-SPX,24-Apr-2009,866.23
USD-US-SPX,27-Apr-2009,857.51
USD-US-SPX,28-Apr-2009,855.16
USD-US-SPX,29-Apr-2009,873.64
USD-US-SPX,30-Apr-2009,872.81
USD-US-SPX,01-May-2009,877.52
USD-US-SPX,04-May-2009,907.24
USD-US-SPX,05-May-2009,903.8
USD-US-SPX,06-May-2009,919.53
USD-US-SPX,07-May-2009,907.39
USD-US-SPX,08-May-2009,929.23
USD-US-SPX,11-May-2009,909.24
USD-US-SPX,12-May-2009,908.35
USD-US-SPX,13-May-2009,883.92
USD-US-SPX,14-May-2009,893.07
USD-US-SPX,15-May-2009,882.88
USD-US-SPX,18-May-2009,909.71
USD-US-SPX,19-May-2009,908.13
USD-US-SPX,20-May-2009,903.47
USD-US-SPX,21-May-2009,888.33
USD-US-SPX,22-May-2009,887.0
USD-US-SPX,25-May-2009,887.0
USD-US-SPX,26-May-2009,910.33
USD-US-SPX,27-May-2009,893.06
USD-US-SPX,28-May-2009,906.83
USD-US-SPX,29-May-2009,919.14
USD-US-SPX,01-Jun-2009,942.87
USD-US-SPX,02-Jun-2009,944.74
USD-US-SPX,03-Jun-2009,931.76
USD-US-SPX,04-Jun-2009,942.46
USD-US-SPX,05-Jun-2009,940.09
USD-US-SPX,08-Jun-2009,939.14
USD-US-SPX,09-Jun-2009,942.43
USD-US-SPX,10-Jun-2009,939.15
USD-US-SPX,11-Jun-2009,944.89
USD-US-SPX,12-Jun-2009,946.21
USD-US-SPX,15-Jun-2009,923.72
USD-US-SPX,16-Jun-2009,911.97
USD-US-SPX,17-Jun-2009,910.71
USD-US-SPX,18-Jun-2009,918.37
USD-US-SPX,19-Jun-2009,921.23
USD-US-SPX,22-Jun-2009,893.04
USD-US-SPX,23-Jun-2009,895.1
USD-US-SPX,24-Jun-2009,900.94
USD-US-SPX,25-Jun-2009,920.26
USD-US-SPX,26-Jun-2009,918.9
USD-US-SPX,29-Jun-2009,927.23
USD-US-SPX,30-Jun-2009,919.32
USD-US-SPX,01-Jul-2009,923.33
USD-US-SPX,02-Jul-2009,896.42
USD-US-SPX,03-Jul-2009,896.42
USD-US-SPX,06-Jul-2009,898.72
USD-US-SPX,07-Jul-2009,881.03
USD-US-SPX,08-Jul-2009,879.56
USD-US-SPX,09-Jul-2009,882.68
USD-US-SPX,10-Jul-2009,879.13
USD-US-SPX,13-Jul-2009,901.05
USD-US-SPX,14-Jul-2009,905.84
USD-US-SPX,15-Jul-2009,932.68
USD-US-SPX,16-Jul-2009,940.74
USD-US-SPX,17-Jul-2009,940.38
USD-US-SPX,20-Jul-2009,951.13
USD-US-SPX,21-Jul-2009,954.58
USD-US-SPX,22-Jul-2009,954.07
USD-US-SPX,23-Jul-2009,976.29
USD-US-SPX,24-Jul-2009,979.26
USD-US-SPX,27-Jul-2009,982.18
USD-US-SPX,28-Jul-2009,979.62
USD-US-SPX,29-Jul-2009,975.15
USD-US-SPX,30-Jul-2009,986.75
USD-US-SPX,31-Jul-2009,987.48
USD-US-SPX,03-Aug-2009,1002.63
USD-US-SPX,04-Aug-2009,1005.65
USD-US-SPX,05-Aug-2009,1002.72
USD-US-SPX,06-Aug-2009,997.08
USD-US-SPX,07-Aug-2009,1010.48
USD-US-SPX,10-Aug-2009,1007.1
USD-US-SPX,11-Aug-2009,994.35
USD-US-SPX,12-Aug-2009,1005.81
USD-US-SPX,13-Aug-2009,1012.73
USD-US-SPX,14-Aug-2009,1004.09
USD-US-SPX,17-Aug-2009,979.73
USD-US-SPX,18-Aug-2009,989.67
USD-US-SPX,19-Aug-2009,996.46
USD-US-SPX,20-Aug-2009,1007.37
USD-US-SPX,21-Aug-2009,1026.13
USD-US-SPX,24-Aug-2009,1025.57
USD-US-SPX,25-Aug-2009,1028.0
USD-US-SPX,26-Aug-2009,1028.12
USD-US-SPX,27-Aug-2009,1030.98
USD-US-SPX,28-Aug-2009,1028.93
USD-US-SPX,31-Aug-2009,1020.63
USD-US-SPX,01-Sep-2009,998.04
USD-US-SPX,02-Sep-2009,994.75
USD-US-SPX,03-Sep-2009,1003.24
USD-US-SPX,04-Sep-2009,1016.4
USD-US-SPX,07-Sep-2009,1016.4
USD-US-SPX,08-Sep-2009,1025.39
USD-US-SPX,09-Sep-2009,1033.37
USD-US-SPX,10-Sep-2009,1044.14
USD-US-SPX,11-Sep-2009,1042.73
USD-US-SPX,14-Sep-2009,1049.34
USD-US-SPX,15-Sep-2009,1052.63
USD-US-SPX,16-Sep-2009,1068.76
USD-US-SPX,17-Sep-2009,1065.48
USD-US-SPX,18-Sep-2009,1068.3
USD-US-SPX,21-Sep-2009,1064.66
USD-US-SPX,22-Sep-2009,1071.66
USD-US-SPX,23-Sep-2009,1060.87
USD-US-SPX,24-Sep-2009,1050.78
USD-US-SPX,25-Sep-2009,1044.38
USD-US-SPX,28-Sep-2009,1062.98
USD-US-SPX,29-Sep-2009,1060.61
USD-US-SPX,30-Sep-2009,1057.08
USD-US-SPX,01-Oct-2009,1029.85
USD-US-SPX,02-Oct-2009,1025.21
USD-US-SPX,05-Oct-2009,1040.45
USD-US-SPX,06-Oct-2009,1054.72
USD-US-SPX,07-Oct-2009,1057.59
USD-US-SPX,08-Oct-2009,1065.48
USD-US-SPX,09-Oct-2009,1071.49
USD-US-SPX,12-Oct-2009,1076.19
USD-US-SPX,13-Oct-2009,1073.19
USD-US-SPX,14-Oct-2009,1092.02
USD-US-SPX,15-Oct-2009,1096.56
USD-US-SPX,16-Oct-2009,1087.68
USD-US-SPX,19-Oct-2009,1097.91
USD-US-SPX,20-Oct-2009,1091.06
USD-US-SPX,21-Oct-2009,1081.4
USD-US-SPX,22-Oct-2009,1092.91
USD-US-SPX,23-Oct-2009,1079.6
USD-US-SPX,26-Oct-2009,1066.95
USD-US-SPX,27-Oct-2009,1063.41
USD-US-SPX,28-Oct-2009,1042.63
USD-US-SPX,29-Oct-2009,1066.11
USD-US-SPX,30-Oct-2009,1036.19
USD-US-SPX,02-Nov-2009,1042.88
USD-US-SPX,03-Nov-2009,1045.41
USD-US-SPX,04-Nov-2009,1046.5
USD-US-SPX,05-Nov-2009,1066.63
USD-US-SPX,06-Nov-2009,1069.3
USD-US-SPX,09-Nov-2009,1093.08
USD-US-SPX,10-Nov-2009,1093.01
USD-US-SPX,11-Nov-2009,1098.51
USD-US-SPX,12-Nov-2009,1087.24
USD-US-SPX,13-Nov-2009,1093.48
USD-US-SPX,16-Nov-2009,1109.3
USD-US-SPX,17-Nov-2009,1110.32
USD-US-SPX,18-Nov-2009,1109.8
USD-US-SPX,19-Nov-2009,1094.9
USD-US-SPX,20-Nov-2009,1091.38
USD-US-SPX,23-Nov-2009,1106.24
USD-US-SPX,24-Nov-2009,1105.65
USD-US-SPX,25-Nov-2009,1110.63
USD-US-SPX,26-Nov-2009,1110.63
USD-US-SPX,27-Nov-2009,1091.49
USD-US-SPX,30-Nov-2009,1095.63
USD-US-SPX,01-Dec-2009,1108.86
USD-US-SPX,02-Dec-2009,1109.23
USD-US-SPX,03-Dec-2009,1099.92
USD-US-SPX,04-Dec-2009,1105.98
USD-US-SPX,07-Dec-2009,1103.25
USD-US-SPX,08-Dec-2009,1091.94
USD-US-SPX,09-Dec-2009,1095.95
USD-US-SPX,10-Dec-2009,1102.35
USD-US-SPX,11-Dec-2009,1106.41
USD-US-SPX,14-Dec-2009,1114.11
USD-US-SPX,15-Dec-2009,1107.93
USD-US-SPX,16-Dec-2009,1109.18
USD-US-SPX,17-Dec-2009,1096.08
USD-US-SPX,18-Dec-2009,1102.47
USD-US-SPX,21-Dec-2009,1114.05
USD-US-SPX,22-Dec-2009,1118.02
USD-US-SPX,23-Dec-2009,1120.59
USD-US-SPX,24-Dec-2009,1126.48
USD-US-SPX,25-Dec-2009,1126.48
USD-US-SPX,28-Dec-2009,1127.78
USD-US-SPX,29-Dec-2009,1126.2
USD-US-SPX,30-Dec-2009,1126.42
USD-US-SPX,31-Dec-2009,1115.1
USD-US-SPX,01-Jan-2010,1115.1
USD-US-SPX,04-Jan-2010,1132.98
USD-US-SPX,05-Jan-2010,1136.52
USD-US-SPX,06-Jan-2010,1137.14
USD-US-SPX,07-Jan-2010,1141.69
USD-US-SPX,08-Jan-2010,1144.98
USD-US-SPX,11-Jan-2010,1146.98
USD-US-SPX,12-Jan-2010,1136.22
USD-US-SPX,13-Jan-2010,1145.68
USD-US-SPX,14-Jan-2010,1148.46
USD-US-SPX,15-Jan-2010,1136.03
USD-US-SPX,18-Jan-2010,1136.03
USD-US-SPX,19-Jan-2010,1150.23
USD-US-SPX,20-Jan-2010,1138.04
USD-US-SPX,21-Jan-2010,1116.48
USD-US-SPX,22-Jan-2010,1091.76
USD-US-SPX,25-Jan-2010,1096.79
USD-US-SPX,26-Jan-2010,1092.17
USD-US-SPX,27-Jan-2010,1097.5
USD-US-SPX,28-Jan-2010,1084.53
USD-US-SPX,29-Jan-2010,1073.87
USD-US-SPX,01-Feb-2010,1089.19
USD-US-SPX,02-Feb-2010,1103.32
USD-US-SPX,03-Feb-2010,1097.28
USD-US-SPX,04-Feb-2010,1063.11
USD-US-SPX,05-Feb-2010,1066.19
USD-US-SPX,08-Feb-2010,1056.74
USD-US-SPX,09-Feb-2010,1070.52
USD-US-SPX,10-Feb-2010,1068.13
USD-US-SPX,11-Feb-2010,1078.47
USD-US-SPX,12-Feb-2010,1075.51
USD-US-SPX,15-Feb-2010,1075.51
USD-US-SPX,16-Feb-2010,1094.87
USD-US-SPX,17-Feb-2010,1099.51
USD-US-SPX,18-Feb-2010,1106.75
USD-US-SPX,19-Feb-2010,1109.17
USD-US-SPX,22-Feb-2010,1108.02
USD-US-SPX,23-Feb-2010,1094.6
USD-US-SPX,24-Feb-2010,1105.24
USD-US-SPX,25-Feb-2010,1102.94
USD-US-SPX,26-Feb-2010,1104.49
USD-US-SPX,01-Mar-2010,1115.71
USD-US-SPX,02-Mar-2010,1118.31
USD-US-SPX,03-Mar-2010,1118.79
USD-US-SPX,04-Mar-2010,1122.97
USD-US-SPX,05-Mar-2010,1138.7
USD-US-SPX,08-Mar-2010,1138.51
USD-US-SPX,09-Mar-2010,1140.45
USD-US-SPX,10-Mar-2010,1145.61
USD-US-SPX,11-Mar-2010,1150.24
USD-US-SPX,12-Mar-2010,1149.99
USD-US-SPX,15-Mar-2010,1150.51
USD-US-SPX,16-Mar-2010,1159.46
USD-US-SPX,17-Mar-2010,1166.21
USD-US-SPX,18-Mar-2010,1165.83
USD-US-SPX,19-Mar-2010,1159.9
USD-US-SPX,22-Mar-2010,1165.81
USD-US-SPX,23-Mar-2010,1174.17
USD-US-SPX,24-Mar-2010,1167.72
USD-US-SPX,25-Mar-2010,1165.73
USD-US-SPX,26-Mar-2010,1166.59
USD-US-SPX,29-Mar-2010,1173.22
USD-US-SPX,30-Mar-2010,1173.27
USD-US-SPX,31-Mar-2010,1169.43
USD-US-SPX,01-Apr-2010,1178.1
USD-US-SPX,02-Apr-2010,1178.1
USD-US-SPX,05-Apr-2010,1187.44
USD-US-SPX,06-Apr-2010,1189.44
USD-US-SPX,07-Apr-2010,1182.45
USD-US-SPX,08-Apr-2010,1186.44
USD-US-SPX,09-Apr-2010,1194.37
USD-US-SPX,12-Apr-2010,1196.48
USD-US-SPX,13-Apr-2010,1197.3
USD-US-SPX,14-Apr-2010,1210.65
USD-US-SPX,15-Apr-2010,1211.67
USD-US-SPX,16-Apr-2010,1192.13
USD-US-SPX,19-Apr-2010,1197.52
USD-US-SPX,20-Apr-2010,1207.17
USD-US-SPX,21-Apr-2010,1205.94
USD-US-SPX,22-Apr-2010,1208.67
USD-US-SPX,23-Apr-2010,1217.28
USD-US-SPX,26-Apr-2010,1212.05
USD-US-SPX,27-Apr-2010,1183.71
USD-US-SPX,28-Apr-2010,1191.36
USD-US-SPX,29-Apr-2010,1206.78
USD-US-SPX,30-Apr-2010,1186.69
USD-US-SPX,03-May-2010,1202.26
USD-US-SPX,04-May-2010,1173.6
USD-US-SPX,05-May-2010,1165.9
USD-US-SPX,06-May-2010,1128.15
USD-US-SPX,07-May-2010,1110.88
USD-US-SPX,10-May-2010,1159.73
USD-US-SPX,11-May-2010,1155.79
USD-US-SPX,12-May-2010,1171.67
USD-US-SPX,13-May-2010,1157.44
USD-US-SPX,14-May-2010,1135.68
USD-US-SPX,17-May-2010,1136.94
USD-US-SPX,18-May-2010,1120.8
USD-US-SPX,19-May-2010,1115.05
USD-US-SPX,20-May-2010,1071.59
USD-US-SPX,21-May-2010,1087.69
USD-US-SPX,24-May-2010,1073.65
USD-US-SPX,25-May-2010,1074.03
USD-US-SPX,26-May-2010,1067.95
USD-US-SPX,27-May-2010,1103.06
USD-US-SPX,28-May-2010,1089.41
USD-US-SPX,31-May-2010,1089.41
USD-US-SPX,01-Jun-2010,1070.71
USD-US-SPX,02-Jun-2010,1098.38
USD-US-SPX,03-Jun-2010,1102.83
USD-US-SPX,04-Jun-2010,1064.88
USD-US-SPX,07-Jun-2010,1050.47
USD-US-SPX,08-Jun-2010,1062.0
USD-US-SPX,09-Jun-2010,1055.69
USD-US-SPX,10-Jun-2010,1086.84
USD-US-SPX,11-Jun-2010,1091.6
USD-US-SPX,14-Jun-2010,1089.63
USD-US-SPX,15-Jun-2010,1115.23
USD-US-SPX,16-Jun-2010,1114.61
USD-US-SPX,17-Jun-2010,1116.04
USD-US-SPX,18-Jun-2010,1117.51
USD-US-SPX,21-Jun-2010,1113.2
USD-US-SPX,22-Jun-2010,1095.31
USD-US-SPX,23-Jun-2010,1092.04
USD-US-SPX,24-Jun-2010,1073.69
USD-US-SPX,25-Jun-2010,1076.77
USD-US-SPX,28-Jun-2010,1074.57
USD-US-SPX,29-Jun-2010,1041.24
USD-US-SPX,30-Jun-2010,1030.71
USD-US-SPX,01-Jul-2010,1027.37
USD-US-SPX,02-Jul-2010,1022.58
USD-US-SPX,05-Jul-2010,1022.58
USD-US-SPX,06-Jul-2010,1028.06
USD-US-SPX,07-Jul-2010,1060.27
USD-US-SPX,08-Jul-2010,1070.24
USD-US-SPX,09-Jul-2010,1077.96
USD-US-SPX,12-Jul-2010,1078.75
USD-US-SPX,13-Jul-2010,1095.34
USD-US-SPX,14-Jul-2010,1095.17
USD-US-SPX,15-Jul-2010,1096.48
USD-US-SPX,16-Jul-2010,1064.88
USD-US-SPX,19-Jul-2010,1071.25
USD-US-SPX,20-Jul-2010,1083.48
USD-US-SPX,21-Jul-2010,1069.59
USD-US-SPX,22-Jul-2010,1093.67
USD-US-SPX,23-Jul-2010,1102.66
USD-US-SPX,26-Jul-2010,1115.01
USD-US-SPX,27-Jul-2010,1113.84
USD-US-SPX,28-Jul-2010,1106.13
USD-US-SPX,29-Jul-2010,1101.53
USD-US-SPX,30-Jul-2010,1101.6
USD-US-SPX,02-Aug-2010,1125.86
USD-US-SPX,03-Aug-2010,1120.46
USD-US-SPX,04-Aug-2010,1127.24
USD-US-SPX,05-Aug-2010,1125.82
USD-US-SPX,06-Aug-2010,1121.64
USD-US-SPX,09-Aug-2010,1127.79
USD-US-SPX,10-Aug-2010,1121.06
USD-US-SPX,11-Aug-2010,1089.47
USD-US-SPX,12-Aug-2010,1083.61
USD-US-SPX,13-Aug-2010,1079.25
USD-US-SPX,16-Aug-2010,1079.38
USD-US-SPX,17-Aug-2010,1092.54
USD-US-SPX,18-Aug-2010,1094.16
USD-US-SPX,19-Aug-2010,1075.63
USD-US-SPX,20-Aug-2010,1071.69
USD-US-SPX,23-Aug-2010,1067.36
USD-US-SPX,24-Aug-2010,1051.87
USD-US-SPX,25-Aug-2010,1055.33
USD-US-SPX,26-Aug-2010,1047.22
USD-US-SPX,27-Aug-2010,1064.59
USD-US-SPX,30-Aug-2010,1048.92
USD-US-SPX,31-Aug-2010,1049.33
USD-US-SPX,01-Sep-2010,1080.29
USD-US-SPX,02-Sep-2010,1090.1
USD-US-SPX,03-Sep-2010,1104.51
USD-US-SPX,06-Sep-2010,1104.51
USD-US-SPX,07-Sep-2010,1091.84
USD-US-SPX,08-Sep-2010,1098.87
USD-US-SPX,09-Sep-2010,1104.18
USD-US-SPX,10-Sep-2010,1109.55
USD-US-SPX,13-Sep-2010,1121.9
USD-US-SPX,14-Sep-2010,1121.1
USD-US-SPX,15-Sep-2010,1125.07
USD-US-SPX,16-Sep-2010,1124.66
USD-US-SPX,17-Sep-2010,1125.59
USD-US-SPX,20-Sep-2010,1142.71
USD-US-SPX,21-Sep-2010,1139.78
USD-US-SPX,22-Sep-2010,1134.28
USD-US-SPX,23-Sep-2010,1124.83
USD-US-SPX,24-Sep-2010,1148.67
USD-US-SPX,27-Sep-2010,1142.16
USD-US-SPX,28-Sep-2010,1147.7
USD-US-SPX,29-Sep-2010,1144.73
USD-US-SPX,30-Sep-2010,1141.2
USD-US-SPX,01-Oct-2010,1146.24
USD-US-SPX,04-Oct-2010,1137.03
USD-US-SPX,05-Oct-2010,1160.75
USD-US-SPX,06-Oct-2010,1159.97
USD-US-SPX,07-Oct-2010,1158.06
USD-US-SPX,08-Oct-2010,1165.15
USD-US-SPX,11-Oct-2010,1165.32
USD-US-SPX,12-Oct-2010,1169.77
USD-US-SPX,13-Oct-2010,1178.1
USD-US-SPX,14-Oct-2010,1173.81
USD-US-SPX,15-Oct-2010,1176.19
USD-US-SPX,18-Oct-2010,1184.71
USD-US-SPX,19-Oct-2010,1165.9
USD-US-SPX,20-Oct-2010,1178.17
USD-US-SPX,21-Oct-2010,1180.27
USD-US-SPX,22-Oct-2010,1183.08
USD-US-SPX,25-Oct-2010,1185.62
USD-US-SPX,26-Oct-2010,1185.64
USD-US-SPX,27-Oct-2010,1182.45
USD-US-SPX,28-Oct-2010,1183.78
USD-US-SPX,29-Oct-2010,1183.26
USD-US-SPX,01-Nov-2010,1184.38
USD-US-SPX,02-Nov-2010,1193.57
USD-US-SPX,03-Nov-2010,1197.96
USD-US-SPX,04-Nov-2010,1221.06
USD-US-SPX,05-Nov-2010,1225.85
USD-US-SPX,08-Nov-2010,1223.25
USD-US-SPX,09-Nov-2010,1213.4
USD-US-SPX,10-Nov-2010,1218.71
USD-US-SPX,11-Nov-2010,1213.54
USD-US-SPX,12-Nov-2010,1199.21
USD-US-SPX,15-Nov-2010,1197.75
USD-US-SPX,16-Nov-2010,1178.34
USD-US-SPX,17-Nov-2010,1178.59
USD-US-SPX,18-Nov-2010,1196.68
USD-US-SPX,19-Nov-2010,1199.73
USD-US-SPX,22-Nov-2010,1197.84
USD-US-SPX,23-Nov-2010,1180.73
USD-US-SPX,24-Nov-2010,1198.35
USD-US-SPX,25-Nov-2010,1198.35
USD-US-SPX,26-Nov-2010,1189.4
USD-US-SPX,29-Nov-2010,1187.76
USD-US-SPX,30-Nov-2010,1180.55
USD-US-SPX,01-Dec-2010,1206.07
USD-US-SPX,02-Dec-2010,1221.53
USD-US-SPX,03-Dec-2010,1224.71
USD-US-SPX,06-Dec-2010,1223.12
USD-US-SPX,07-Dec-2010,1223.75
USD-US-SPX,08-Dec-2010,1228.28
USD-US-SPX,09-Dec-2010,1233.0
USD-US-SPX,10-Dec-2010,1240.4
USD-US-SPX,13-Dec-2010,1240.46
USD-US-SPX,14-Dec-2010,1241.59
USD-US-SPX,15-Dec-2010,1235.23
USD-US-SPX,16-Dec-2010,1242.87
USD-US-SPX,17-Dec-2010,1243.91
USD-US-SPX,20-Dec-2010,1247.08
USD-US-SPX,21-Dec-2010,1254.6
USD-US-SPX,22-Dec-2010,1258.84
USD-US-SPX,23-Dec-2010,1256.77
USD-US-SPX,24-Dec-2010,1256.77
USD-US-SPX,27-Dec-2010,1257.54
USD-US-SPX,28-Dec-2010,1258.51
USD-US-SPX,29-Dec-2010,1259.78
USD-US-SPX,30-Dec-2010,1257.88
USD-US-SPX,31-Dec-2010,1257.64
USD-US-SPX,03-Jan-2011,1271.87
USD-US-SPX,04-Jan-2011,1270.2
USD-US-SPX,05-Jan-2011,1276.56
USD-US-SPX,06-Jan-2011,1273.85
USD-US-SPX,07-Jan-2011,1271.5
USD-US-SPX,10-Jan-2011,1269.75
USD-US-SPX,11-Jan-2011,1274.48
USD-US-SPX,12-Jan-2011,1285.95
USD-US-SPX,13-Jan-2011,1283.76
USD-US-SPX,14-Jan-2011,1293.24
USD-US-SPX,17-Jan-2011,1293.24
USD-US-SPX,18-Jan-2011,1295.02
USD-US-SPX,19-Jan-2011,1281.92
USD-US-SPX,20-Jan-2011,1280.26
USD-US-SPX,21-Jan-2011,1283.35
USD-US-SPX,24-Jan-2011,1290.84
USD-US-SPX,25-Jan-2011,1291.18
USD-US-SPX,26-Jan-2011,1296.63
USD-US-SPX,27-Jan-2011,1299.54
USD-US-SPX,28-Jan-2011,1276.34
USD-US-SPX,31-Jan-2011,1286.12
USD-US-SPX,01-Feb-2011,1307.59
USD-US-SPX,02-Feb-2011,1304.03
USD-US-SPX,03-Feb-2011,1307.1
USD-US-SPX,04-Feb-2011,1310.87
USD-US-SPX,07-Feb-2011,1319.05
USD-US-SPX,08-Feb-2011,1324.57
USD-US-SPX,09-Feb-2011,1320.88
USD-US-SPX,10-Feb-2011,1321.87
USD-US-SPX,11-Feb-2011,1329.15
USD-US-SPX,14-Feb-2011,1332.32
USD-US-SPX,15-Feb-2011,1328.01
USD-US-SPX,16-Feb-2011,1336.32
USD-US-SPX,17-Feb-2011,1340.43
USD-US-SPX,18-Feb-2011,1343.01
USD-US-SPX,21-Feb-2011,1343.01
USD-US-SPX,22-Feb-2011,1315.44
USD-US-SPX,23-Feb-2011,1307.4
USD-US-SPX,24-Feb-2011,1306.1
USD-US-SPX,25-Feb-2011,1319.88
USD-US-SPX,28-Feb-2011,1327.22
USD-US-SPX,01-Mar-2011,1306.33
USD-US-SPX,02-Mar-2011,1308.44
USD-US-SPX,03-Mar-2011,1330.97
USD-US-SPX,04-Mar-2011,1321.15
USD-US-SPX,07-Mar-2011,1310.13
USD-US-SPX,08-Mar-2011,1321.82
USD-US-SPX,09-Mar-2011,1320.03
USD-US-SPX,10-Mar-2011,1295.11
USD-US-SPX,11-Mar-2011,1304.28
USD-US-SPX,14-Mar-2011,1296.39
USD-US-SPX,15-Mar-2011,1281.87
USD-US-SPX,16-Mar-2011,1256.88
USD-US-SPX,17-Mar-2011,1273.71
USD-US-SPX,18-Mar-2011,1279.2
USD-US-SPX,21-Mar-2011,1298.38
USD-US-SPX,22-Mar-2011,1293.77
USD-US-SPX,23-Mar-2011,1297.54
USD-US-SPX,24-Mar-2011,1309.66
USD-US-SPX,25-Mar-2011,1313.8
USD-US-SPX,28-Mar-2011,1310.19
USD-US-SPX,29-Mar-2011,1319.44
USD-US-SPX,30-Mar-2011,1328.26
USD-US-SPX,31-Mar-2011,1325.83
USD-US-SPX,01-Apr-2011,1332.41
USD-US-SPX,04-Apr-2011,1332.87
USD-US-SPX,05-Apr-2011,1332.63
USD-US-SPX,06-Apr-2011,1335.54
USD-US-SPX,07-Apr-2011,1333.51
USD-US-SPX,08-Apr-2011,1328.17
USD-US-SPX,11-Apr-2011,1324.46
USD-US-SPX,12-Apr-2011,1314.16
USD-US-SPX,13-Apr-2011,1314.41
USD-US-SPX,14-Apr-2011,1314.52
USD-US-SPX,15-Apr-2011,1319.68
USD-US-SPX,18-Apr-2011,1305.14
USD-US-SPX,19-Apr-2011,1312.62
USD-US-SPX,20-Apr-2011,1330.36
USD-US-SPX,21-Apr-2011,1337.38
USD-US-SPX,22-Apr-2011,1337.38
USD-US-SPX,25-Apr-2011,1335.25
USD-US-SPX,26-Apr-2011,1347.24
USD-US-SPX,27-Apr-2011,1355.66
USD-US-SPX,28-Apr-2011,1360.48
USD-US-SPX,29-Apr-2011,1363.61
USD-US-SPX,02-May-2011,1361.22
USD-US-SPX,03-May-2011,1356.62
USD-US-SPX,04-May-2011,1347.32
USD-US-SPX,05-May-2011,1335.1
USD-US-SPX,06-May-2011,1340.2
USD-US-SPX,09-May-2011,1346.3
USD-US-SPX,10-May-2011,1357.16
USD-US-SPX,11-May-2011,1342.08
USD-US-SPX,12-May-2011,1348.65
USD-US-SPX,13-May-2011,1337.77
USD-US-SPX,16-May-2011,1329.47
USD-US-SPX,17-May-2011,1328.98
USD-US-SPX,18-May-2011,1340.68
USD-US-SPX,19-May-2011,1343.6
USD-US-SPX,20-May-2011,1333.27
USD-US-SPX,23-May-2011,1317.37
USD-US-SPX,24-May-2011,1316.28
USD-US-SPX,25-May-2011,1320.47
USD-US-SPX,26-May-2011,1325.69
USD-US-SPX,27-May-2011,1331.1
USD-US-SPX,30-May-2011,1331.1
USD-US-SPX,31-May-2011,1345.2
USD-US-SPX,01-Jun-2011,1314.55
USD-US-SPX,02-Jun-2011,1312.94
USD-US-SPX,03-Jun-2011,1300.16
USD-US-SPX,06-Jun-2011,1286.17
USD-US-SPX,07-Jun-2011,1284.94
USD-US-SPX,08-Jun-2011,1279.56
USD-US-SPX,09-Jun-2011,1289.0
USD-US-SPX,10-Jun-2011,1270.98
USD-US-SPX,13-Jun-2011,1271.83
USD-US-SPX,14-Jun-2011,1287.87
USD-US-SPX,15-Jun-2011,1265.42
USD-US-SPX,16-Jun-2011,1267.64
USD-US-SPX,17-Jun-2011,1271.5
USD-US-SPX,20-Jun-2011,1278.36
USD-US-SPX,21-Jun-2011,1295.52
USD-US-SPX,22-Jun-2011,1287.14
USD-US-SPX,23-Jun-2011,1283.5
USD-US-SPX,24-Jun-2011,1268.44
USD-US-SPX,27-Jun-2011,1280.1
USD-US-SPX,28-Jun-2011,1296.67
USD-US-SPX,29-Jun-2011,1307.41
USD-US-SPX,30-Jun-2011,1320.64
USD-US-SPX,01-Jul-2011,1339.67
USD-US-SPX,04-Jul-2011,1339.67
USD-US-SPX,05-Jul-2011,1337.88
USD-US-SPX,06-Jul-2011,1339.22
USD-US-SPX,07-Jul-2011,1353.22
USD-US-SPX,08-Jul-2011,1343.8
USD-US-SPX,11-Jul-2011,1319.49
USD-US-SPX,12-Jul-2011,1313.64
USD-US-SPX,13-Jul-2011,1317.72
USD-US-SPX,14-Jul-2011,1308.87
USD-US-SPX,15-Jul-2011,1316.14
USD-US-SPX,18-Jul-2011,1305.44
USD-US-SPX,19-Jul-2011,1326.73
USD-US-SPX,20-Jul-2011,1325.84
USD-US-SPX,21-Jul-2011,1343.8
USD-US-SPX,22-Jul-2011,1345.02
USD-US-SPX,25-Jul-2011,1337.43
USD-US-SPX,26-Jul-2011,1331.94
USD-US-SPX,27-Jul-2011,1304.89
USD-US-SPX,28-Jul-2011,1300.67
USD-US-SPX,29-Jul-2011,1292.28
USD-US-SPX,01-Aug-2011,1286.94
USD-US-SPX,02-Aug-2011,1254.05
USD-US-SPX,03-Aug-2011,1260.34
USD-US-SPX,04-Aug-2011,1200.07
USD-US-SPX,05-Aug-2011,1199.38
USD-US-SPX,08-Aug-2011,1119.46
USD-US-SPX,09-Aug-2011,1172.53
USD-US-SPX,10-Aug-2011,1120.76
USD-US-SPX,11-Aug-2011,1172.64
USD-US-SPX,12-Aug-2011,1178.81
USD-US-SPX,15-Aug-2011,1204.49
USD-US-SPX,16-Aug-2011,1192.76
USD-US-SPX,17-Aug-2011,1193.88
USD-US-SPX,18-Aug-2011,1140.65
USD-US-SPX,19-Aug-2011,1123.53
USD-US-SPX,22-Aug-2011,1123.82
USD-US-SPX,23-Aug-2011,1162.35
USD-US-SPX,24-Aug-2011,1177.6
USD-US-SPX,25-Aug-2011,1159.27
USD-US-SPX,26-Aug-2011,1176.8
USD-US-SPX,29-Aug-2011,1210.09
USD-US-SPX,30-Aug-2011,1212.92
USD-US-SPX,31-Aug-2011,1218.89
USD-US-SPX,01-Sep-2011,1204.42
USD-US-SPX,02-Sep-2011,1173.97
USD-US-SPX,05-Sep-2011,1173.97
USD-US-SPX,06-Sep-2011,1165.24
USD-US-SPX,07-Sep-2011,1198.62
USD-US-SPX,08-Sep-2011,1185.9
USD-US-SPX,09-Sep-2011,1154.23
USD-US-SPX,12-Sep-2011,1162.27
USD-US-SPX,13-Sep-2011,1172.87
USD-US-SPX,14-Sep-2011,1188.67
USD-US-SPX,15-Sep-2011,1209.11
USD-US-SPX,16-Sep-2011,1216.01
USD-US-SPX,19-Sep-2011,1204.09
USD-US-SPX,20-Sep-2011,1202.09
USD-US-SPX,21-Sep-2011,1166.76
USD-US-SPX,22-Sep-2011,1129.56
USD-US-SPX,23-Sep-2011,1136.43
USD-US-SPX,26-Sep-2011,1162.95
USD-US-SPX,27-Sep-2011,1175.38
USD-US-SPX,28-Sep-2011,1151.06
USD-US-SPX,29-Sep-2011,1160.4
USD-US-SPX,30-Sep-2011,1131.42
USD-US-SPX,03-Oct-2011,1099.23
USD-US-SPX,04-Oct-2011,1123.95
USD-US-SPX,05-Oct-2011,1144.03
USD-US-SPX,06-Oct-2011,1164.97
USD-US-SPX,07-Oct-2011,1155.46
USD-US-SPX,10-Oct-2011,1194.89
USD-US-SPX,11-Oct-2011,1195.54
USD-US-SPX,12-Oct-2011,1207.25
USD-US-SPX,13-Oct-2011,1203.66
USD-US-SPX,14-Oct-2011,1224.58
USD-US-SPX,17-Oct-2011,1200.86
USD-US-SPX,18-Oct-2011,1225.38
USD-US-SPX,19-Oct-2011,1209.88
USD-US-SPX,20-Oct-2011,1215.39
USD-US-SPX,21-Oct-2011,1238.25
USD-US-SPX,24-Oct-2011,1254.19
USD-US-SPX,25-Oct-2011,1229.05
USD-US-SPX,26-Oct-2011,1242.0
USD-US-SPX,27-Oct-2011,1284.59
USD-US-SPX,28-Oct-2011,1285.09
USD-US-SPX,31-Oct-2011,1253.3
USD-US-SPX,01-Nov-2011,1218.28
USD-US-SPX,02-Nov-2011,1237.9
USD-US-SPX,03-Nov-2011,1261.15
USD-US-SPX,04-Nov-2011,1253.23
USD-US-SPX,07-Nov-2011,1261.12
USD-US-SPX,08-Nov-2011,1275.92
USD-US-SPX,09-Nov-2011,1229.1
USD-US-SPX,10-Nov-2011,1239.69
USD-US-SPX,11-Nov-2011,1263.86
USD-US-SPX,14-Nov-2011,1251.78
USD-US-SPX,15-Nov-2011,1257.81
USD-US-SPX,16-Nov-2011,1236.91
USD-US-SPX,17-Nov-2011,1216.13
USD-US-SPX,18-Nov-2011,1215.65
USD-US-SPX,21-Nov-2011,1192.98
USD-US-SPX,22-Nov-2011,1188.04
USD-US-SPX,23-Nov-2011,1161.79
USD-US-SPX,24-Nov-2011,1161.79
USD-US-SPX,25-Nov-2011,1158.67
USD-US-SPX,28-Nov-2011,1192.55
USD-US-SPX,29-Nov-2011,1195.19
USD-US-SPX,30-Nov-2011,1246.96
USD-US-SPX,01-Dec-2011,1244.58
USD-US-SPX,02-Dec-2011,1244.28
USD-US-SPX,05-Dec-2011,1257.08
USD-US-SPX,06-Dec-2011,1258.47
USD-US-SPX,07-Dec-2011,1261.01
USD-US-SPX,08-Dec-2011,1234.35
USD-US-SPX,09-Dec-2011,1255.19
USD-US-SPX,12-Dec-2011,1236.47
USD-US-SPX,13-Dec-2011,1225.73
USD-US-SPX,14-Dec-2011,1211.82
USD-US-SPX,15-Dec-2011,1215.75
USD-US-SPX,16-Dec-2011,1219.66
USD-US-SPX,19-Dec-2011,1205.35
USD-US-SPX,20-Dec-2011,1241.31
USD-US-SPX,21-Dec-2011,1243.72
USD-US-SPX,22-Dec-2011,1254.0
USD-US-SPX,23-Dec-2011,1265.33
USD-US-SPX,26-Dec-2011,1265.33
USD-US-SPX,27-Dec-2011,1265.43
USD-US-SPX,28-Dec-2011,1249.64
USD-US-SPX,29-Dec-2011,1263.02
USD-US-SPX,30-Dec-2011,1257.61
USD-US-SPX,02-Jan-2012,1257.61
USD-US-SPX,03-Jan-2012,1277.06
USD-US-SPX,04-Jan-2012,1277.3
USD-US-SPX,05-Jan-2012,1281.06
USD-US-SPX,06-Jan-2012,1277.81
USD-US-SPX,09-Jan-2012,1280.7
USD-US-SPX,10-Jan-2012,1292.08
USD-US-SPX,11-Jan-2012,1292.48
USD-US-SPX,12-Jan-2012,1295.5
USD-US-SPX,13-Jan-2012,1289.09
USD-US-SPX,16-Jan-2012,1289.09
USD-US-SPX,17-Jan-2012,1293.67
USD-US-SPX,18-Jan-2012,1308.04
USD-US-SPX,19-Jan-2012,1314.5
USD-US-SPX,20-Jan-2012,1315.38
USD-US-SPX,23-Jan-2012,1316.0
USD-US-SPX,24-Jan-2012,1314.65
USD-US-SPX,25-Jan-2012,1326.05
USD-US-SPX,26-Jan-2012,1318.43
USD-US-SPX,27-Jan-2012,1316.33
USD-US-SPX,30-Jan-2012,1313.01
USD-US-SPX,31-Jan-2012,1312.41
USD-US-SPX,01-Feb-2012,1324.09
USD-US-SPX,02-Feb-2012,1325.54
USD-US-SPX,03-Feb-2012,1344.9
USD-US-SPX,06-Feb-2012,1344.33
USD-US-SPX,07-Feb-2012,1347.05
USD-US-SPX,08-Feb-2012,1349.96
USD-US-SPX,09-Feb-2012,1351.95
USD-US-SPX,10-Feb-2012,1342.64
USD-US-SPX,13-Feb-2012,1351.77
USD-US-SPX,14-Feb-2012,1350.5
USD-US-SPX,15-Feb-2012,1343.23
USD-US-SPX,16-Feb-2012,1358.04
USD-US-SPX,17-Feb-2012,1361.23
USD-US-SPX,20-Feb-2012,1361.23
USD-US-SPX,21-Feb-2012,1362.21
USD-US-SPX,22-Feb-2012,1357.66
USD-US-SPX,23-Feb-2012,1363.46
USD-US-SPX,24-Feb-2012,1365.74
USD-US-SPX,27-Feb-2012,1367.59
USD-US-SPX,28-Feb-2012,1372.17
USD-US-SPX,29-Feb-2012,1365.68
USD-US-SPX,01-Mar-2012,1374.09
USD-US-SPX,02-Mar-2012,1369.63
USD-US-SPX,05-Mar-2012,1364.34
USD-US-SPX,06-Mar-2012,1343.36
USD-US-SPX,07-Mar-2012,1352.63
USD-US-SPX,08-Mar-2012,1365.91
USD-US-SPX,09-Mar-2012,1370.87
USD-US-SPX,12-Mar-2012,1371.09
USD-US-SPX,13-Mar-2012,1395.95
USD-US-SPX,14-Mar-2012,1394.28
USD-US-SPX,15-Mar-2012,1402.6
USD-US-SPX,16-Mar-2012,1404.17
USD-US-SPX,19-Mar-2012,1409.75
USD-US-SPX,20-Mar-2012,1405.52
USD-US-SPX,21-Mar-2012,1402.89
USD-US-SPX,22-Mar-2012,1392.79
USD-US-SPX,23-Mar-2012,1397.11
USD-US-SPX,26-Mar-2012,1416.51
USD-US-SPX,27-Mar-2012,1412.52
USD-US-SPX,28-Mar-2012,1405.54
USD-US-SPX,29-Mar-2012,1403.28
USD-US-SPX,30-Mar-2012,1408.47
USD-US-SPX,02-Apr-2012,1419.04
USD-US-SPX,03-Apr-2012,1413.38
USD-US-SPX,04-Apr-2012,1398.96
USD-US-SPX,05-Apr-2012,1398.08
USD-US-SPX,06-Apr-2012,1398.08
USD-US-SPX,09-Apr-2012,1382.2
USD-US-SPX,10-Apr-2012,1358.59
USD-US-SPX,11-Apr-2012,1368.7
USD-US-SPX,12-Apr-2012,1387.57
USD-US-SPX,13-Apr-2012,1370.26
USD-US-SPX,16-Apr-2012,1369.57
USD-US-SPX,17-Apr-2012,1390.78
USD-US-SPX,18-Apr-2012,1385.14
USD-US-SPX,19-Apr-2012,1376.92
USD-US-SPX,20-Apr-2012,1378.53
USD-US-SPX,23-Apr-2012,1366.94
USD-US-SPX,24-Apr-2012,1371.97
USD-US-SPX,25-Apr-2012,1390.69
USD-US-SPX,26-Apr-2012,1399.98
USD-US-SPX,27-Apr-2012,1403.36
USD-US-SPX,30-Apr-2012,1397.91
USD-US-SPX,01-May-2012,1405.82
USD-US-SPX,02-May-2012,1402.31
USD-US-SPX,03-May-2012,1391.57
USD-US-SPX,04-May-2012,1369.1
USD-US-SPX,07-May-2012,1369.58
USD-US-SPX,08-May-2012,1363.72
USD-US-SPX,09-May-2012,1354.58
USD-US-SPX,10-May-2012,1357.99
USD-US-SPX,11-May-2012,1353.39
USD-US-SPX,14-May-2012,1338.35
USD-US-SPX,15-May-2012,1330.66
USD-US-SPX,16-May-2012,1324.8
USD-US-SPX,17-May-2012,1304.86
USD-US-SPX,18-May-2012,1295.22
USD-US-SPX,21-May-2012,1315.99
USD-US-SPX,22-May-2012,1316.63
USD-US-SPX,23-May-2012,1318.86
USD-US-SPX,24-May-2012,1320.68
USD-US-SPX,25-May-2012,1317.82
USD-US-SPX,28-May-2012,1317.82
USD-US-SPX,29-May-2012,1332.42
USD-US-SPX,30-May-2012,1313.32
USD-US-SPX,31-May-2012,1310.33
USD-US-SPX,01-Jun-2012,1278.05
USD-US-SPX,04-Jun-2012,1278.18
USD-US-SPX,05-Jun-2012,1285.5
USD-US-SPX,06-Jun-2012,1315.13
USD-US-SPX,07-Jun-2012,1314.99
USD-US-SPX,08-Jun-2012,1325.66
USD-US-SPX,11-Jun-2012,1308.93
USD-US-SPX,12-Jun-2012,1324.18
USD-US-SPX,13-Jun-2012,1314.88
USD-US-SPX,14-Jun-2012,1329.1
USD-US-SPX,15-Jun-2012,1342.84
USD-US-SPX,18-Jun-2012,1344.78
USD-US-SPX,19-Jun-2012,1357.98
USD-US-SPX,20-Jun-2012,1355.69
USD-US-SPX,21-Jun-2012,1325.51
USD-US-SPX,22-Jun-2012,1335.02
USD-US-SPX,25-Jun-2012,1313.72
USD-US-SPX,26-Jun-2012,1319.99
USD-US-SPX,27-Jun-2012,1331.85
USD-US-SPX,28-Jun-2012,1329.04
USD-US-SPX,29-Jun-2012,1362.16
USD-US-SPX,02-Jul-2012,1365.51
USD-US-SPX,03-Jul-2012,1374.02
USD-US-SPX,04-Jul-2012,1374.02
USD-US-SPX,05-Jul-2012,1367.58
USD-US-SPX,06-Jul-2012,1354.68
USD-US-SPX,09-Jul-2012,1352.46
USD-US-SPX,10-Jul-2012,1341.47
USD-US-SPX,11-Jul-2012,1341.45
USD-US-SPX,12-Jul-2012,1334.76
USD-US-SPX,13-Jul-2012,1356.78
USD-US-SPX,16-Jul-2012,1353.64
USD-US-SPX,17-Jul-2012,1363.67
USD-US-SPX,18-Jul-2012,1372.78
USD-US-SPX,19-Jul-2012,1376.51
USD-US-SPX,20-Jul-2012,1362.66
USD-US-SPX,23-Jul-2012,1350.52
USD-US-SPX,24-Jul-2012,1338.31
USD-US-SPX,25-Jul-2012,1337.89
USD-US-SPX,26-Jul-2012,1360.02
USD-US-SPX,27-Jul-2012,1385.97
USD-US-SPX,30-Jul-2012,1385.3
USD-US-SPX,31-Jul-2012,1379.32
USD-US-SPX,01-Aug-2012,1375.14
USD-US-SPX,02-Aug-2012,1365.0
USD-US-SPX,03-Aug-2012,1390.99
USD-US-SPX,06-Aug-2012,1394.23
USD-US-SPX,07-Aug-2012,1401.35
USD-US-SPX,08-Aug-2012,1402.22
USD-US-SPX,09-Aug-2012,1402.8
USD-US-SPX,10-Aug-2012,1405.87
USD-US-SPX,13-Aug-2012,1404.11
USD-US-SPX,14-Aug-2012,1403.93
USD-US-SPX,15-Aug-2012,1405.53
USD-US-SPX,16-Aug-2012,1415.51
USD-US-SPX,17-Aug-2012,1418.16
USD-US-SPX,20-Aug-2012,1418.13
USD-US-SPX,21-Aug-2012,1413.17
USD-US-SPX,22-Aug-2012,1413.49
USD-US-SPX,23-Aug-2012,1402.08
USD-US-SPX,24-Aug-2012,1411.13
USD-US-SPX,27-Aug-2012,1410.43
USD-US-SPX,28-Aug-2012,1409.3
USD-US-SPX,29-Aug-2012,1410.49
USD-US-SPX,30-Aug-2012,1399.48
USD-US-SPX,31-Aug-2012,1406.58
USD-US-SPX,03-Sep-2012,1406.58
USD-US-SPX,04-Sep-2012,1404.94
USD-US-SPX,05-Sep-2012,1403.43
USD-US-SPX,06-Sep-2012,1432.12
USD-US-SPX,07-Sep-2012,1437.92
USD-US-SPX,10-Sep-2012,1429.08
USD-US-SPX,11-Sep-2012,1433.57
USD-US-SPX,12-Sep-2012,1436.56
USD-US-SPX,13-Sep-2012,1459.99
USD-US-SPX,14-Sep-2012,1465.77
USD-US-SPX,17-Sep-2012,1461.19
USD-US-SPX,18-Sep-2012,1459.32
USD-US-SPX,19-Sep-2012,1461.05
USD-US-SPX,20-Sep-2012,1460.26
USD-US-SPX,21-Sep-2012,1460.15
USD-US-SPX,24-Sep-2012,1456.89
USD-US-SPX,25-Sep-2012,1441.59
USD-US-SPX,26-Sep-2012,1433.32
USD-US-SPX,27-Sep-2012,1447.15
USD-US-SPX,28-Sep-2012,1440.67
USD-US-SPX,01-Oct-2012,1444.49
USD-US-SPX,02-Oct-2012,1445.75
USD-US-SPX,03-Oct-2012,1450.99
USD-US-SPX,04-Oct-2012,1461.4
USD-US-SPX,05-Oct-2012,1460.93
USD-US-SPX,08-Oct-2012,1455.88
USD-US-SPX,09-Oct-2012,1441.48
USD-US-SPX,10-Oct-2012,1432.56
USD-US-SPX,11-Oct-2012,1432.84
USD-US-SPX,12-Oct-2012,1428.59
USD-US-SPX,15-Oct-2012,1440.13
USD-US-SPX,16-Oct-2012,1454.92
USD-US-SPX,17-Oct-2012,1460.91
USD-US-SPX,18-Oct-2012,1457.34
USD-US-SPX,19-Oct-2012,1433.19
USD-US-SPX,22-Oct-2012,1433.82
USD-US-SPX,23-Oct-2012,1413.11
USD-US-SPX,24-Oct-2012,1408.75
USD-US-SPX,25-Oct-2012,1412.97
USD-US-SPX,26-Oct-2012,1411.94
USD-US-SPX,29-Oct-2012,1411.94
USD-US-SPX,30-Oct-2012,1411.94
USD-US-SPX,31-Oct-2012,1412.16
USD-US-SPX,01-Nov-2012,1427.59
USD-US-SPX,02-Nov-2012,1414.2
USD-US-SPX,05-Nov-2012,1417.26
USD-US-SPX,06-Nov-2012,1428.39
USD-US-SPX,07-Nov-2012,1394.53
USD-US-SPX,08-Nov-2012,1377.51
USD-US-SPX,09-Nov-2012,1379.85
USD-US-SPX,12-Nov-2012,1380.03
USD-US-SPX,13-Nov-2012,1374.53
USD-US-SPX,14-Nov-2012,1355.49
USD-US-SPX,15-Nov-2012,1353.33
USD-US-SPX,16-Nov-2012,1359.88
USD-US-SPX,19-Nov-2012,1386.89
USD-US-SPX,20-Nov-2012,1387.81
USD-US-SPX,21-Nov-2012,1391.03
USD-US-SPX,22-Nov-2012,1391.03
USD-US-SPX,23-Nov-2012,1409.15
USD-US-SPX,26-Nov-2012,1406.29
USD-US-SPX,27-Nov-2012,1398.94
USD-US-SPX,28-Nov-2012,1409.93
USD-US-SPX,29-Nov-2012,1415.95
USD-US-SPX,30-Nov-2012,1416.18
USD-US-SPX,03-Dec-2012,1409.46
USD-US-SPX,04-Dec-2012,1407.05
USD-US-SPX,05-Dec-2012,1409.28
USD-US-SPX,06-Dec-2012,1413.94
USD-US-SPX,07-Dec-2012,1418.07
USD-US-SPX,10-Dec-2012,1418.55
USD-US-SPX,11-Dec-2012,1427.84
USD-US-SPX,12-Dec-2012,1428.48
USD-US-SPX,13-Dec-2012,1419.45
USD-US-SPX,14-Dec-2012,1413.58
USD-US-SPX,17-Dec-2012,1430.36
USD-US-SPX,18-Dec-2012,1446.79
USD-US-SPX,19-Dec-2012,1435.81
USD-US-SPX,20-Dec-2012,1443.69
USD-US-SPX,21-Dec-2012,1430.15
USD-US-SPX,24-Dec-2012,1426.66
USD-US-SPX,25-Dec-2012,1426.66
USD-US-SPX,26-Dec-2012,1419.83
USD-US-SPX,27-Dec-2012,1418.1
USD-US-SPX,28-Dec-2012,1402.43
USD-US-SPX,31-Dec-2012,1426.19
USD-US-SPX,01-Jan-2013,1426.19
USD-US-SPX,02-Jan-2013,1462.42
USD-US-SPX,03-Jan-2013,1459.37
USD-US-SPX,04-Jan-2013,1466.47
USD-US-SPX,07-Jan-2013,1461.89
USD-US-SPX,08-Jan-2013,1457.15
USD-US-SPX,09-Jan-2013,1461.02
USD-US-SPX,10-Jan-2013,1472.12
USD-US-SPX,11-Jan-2013,1472.05
USD-US-SPX,14-Jan-2013,1470.68
USD-US-SPX,15-Jan-2013,1472.34
USD-US-SPX,16-Jan-2013,1472.63
USD-US-SPX,17-Jan-2013,1480.94
USD-US-SPX,18-Jan-2013,1485.98
USD-US-SPX,21-Jan-2013,1485.98
USD-US-SPX,22-Jan-2013,1492.56
USD-US-SPX,23-Jan-2013,1494.81
USD-US-SPX,24-Jan-2013,1494.82
USD-US-SPX,25-Jan-2013,1502.96
USD-US-SPX,28-Jan-2013,1500.18
USD-US-SPX,29-Jan-2013,1507.84
USD-US-SPX,30-Jan-2013,1501.96
USD-US-SPX,31-Jan-2013,1498.11
USD-US-SPX,01-Feb-2013,1513.17
USD-US-SPX,04-Feb-2013,1495.71
USD-US-SPX,05-Feb-2013,1511.29
USD-US-SPX,06-Feb-2013,1512.12
USD-US-SPX,07-Feb-2013,1509.39
USD-US-SPX,08-Feb-2013,1517.93
USD-US-SPX,11-Feb-2013,1517.01
USD-US-SPX,12-Feb-2013,1519.43
USD-US-SPX,13-Feb-2013,1520.33
USD-US-SPX,14-Feb-2013,1521.38
USD-US-SPX,15-Feb-2013,1519.79
USD-US-SPX,18-Feb-2013,1519.79
USD-US-SPX,19-Feb-2013,1530.94
USD-US-SPX,20-Feb-2013,1511.95
USD-US-SPX,21-Feb-2013,1502.42
USD-US-SPX,22-Feb-2013,1515.6
USD-US-SPX,25-Feb-2013,1487.85
USD-US-SPX,26-Feb-2013,1496.94
USD-US-SPX,27-Feb-2013,1515.99
USD-US-SPX,28-Feb-2013,1514.68
USD-US-SPX,01-Mar-2013,1518.2
USD-US-SPX,04-Mar-2013,1525.2
USD-US-SPX,05-Mar-2013,1539.79
USD-US-SPX,06-Mar-2013,1541.46
USD-US-SPX,07-Mar-2013,1544.26
USD-US-SPX,08-Mar-2013,1551.18
USD-US-SPX,11-Mar-2013,1556.22
USD-US-SPX,12-Mar-2013,1552.48
USD-US-SPX,13-Mar-2013,1554.52
USD-US-SPX,14-Mar-2013,1563.23
USD-US-SPX,15-Mar-2013,1560.7
USD-US-SPX,18-Mar-2013,1552.1
USD-US-SPX,19-Mar-2013,1548.34
USD-US-SPX,20-Mar-2013,1558.71
USD-US-SPX,21-Mar-2013,1545.8
USD-US-SPX,22-Mar-2013,1556.89
USD-US-SPX,25-Mar-2013,1551.69
USD-US-SPX,26-Mar-2013,1563.77
USD-US-SPX,27-Mar-2013,1562.85
USD-US-SPX,28-Mar-2013,1569.19
USD-US-SPX,29-Mar-2013,1569.19
USD-US-SPX,01-Apr-2013,1562.17
USD-US-SPX,02-Apr-2013,1570.25
USD-US-SPX,03-Apr-2013,1553.69
USD-US-SPX,04-Apr-2013,1559.98
USD-US-SPX,05-Apr-2013,1553.28
USD-US-SPX,08-Apr-2013,1563.07
USD-US-SPX,09-Apr-2013,1568.61
USD-US-SPX,10-Apr-2013,1587.73
USD-US-SPX,11-Apr-2013,1593.37
USD-US-SPX,12-Apr-2013,1588.85
USD-US-SPX,15-Apr-2013,1552.36
USD-US-SPX,16-Apr-2013,1574.57
USD-US-SPX,17-Apr-2013,1552.01
USD-US-SPX,18-Apr-2013,1541.61
USD-US-SPX,19-Apr-2013,1555.25
USD-US-SPX,22-Apr-2013,1562.5
USD-US-SPX,23-Apr-2013,1578.78
USD-US-SPX,24-Apr-2013,1578.79
USD-US-SPX,25-Apr-2013,1585.16
USD-US-SPX,26-Apr-2013,1582.24
USD-US-SPX,29-Apr-2013,1593.61
USD-US-SPX,30-Apr-2013,1597.57
USD-US-SPX,01-May-2013,1582.7
USD-US-SPX,02-May-2013,1597.59
USD-US-SPX,03-May-2013,1614.42
USD-US-SPX,06-May-2013,1617.5
USD-US-SPX,07-May-2013,1625.96
USD-US-SPX,08-May-2013,1632.69
USD-US-SPX,09-May-2013,1626.67
USD-US-SPX,10-May-2013,1633.7
USD-US-SPX,13-May-2013,1633.77
USD-US-SPX,14-May-2013,1650.34
USD-US-SPX,15-May-2013,1658.78
USD-US-SPX,16-May-2013,1650.47
USD-US-SPX,17-May-2013,1667.47
USD-US-SPX,20-May-2013,1666.29
USD-US-SPX,21-May-2013,1669.16
USD-US-SPX,22-May-2013,1655.35
USD-US-SPX,23-May-2013,1650.51
USD-US-SPX,24-May-2013,1649.6
USD-US-SPX,27-May-2013,1649.6
USD-US-SPX,28-May-2013,1660.06
USD-US-SPX,29-May-2013,1648.36
USD-US-SPX,30-May-2013,1654.41
USD-US-SPX,31-May-2013,1630.74
USD-US-SPX,03-Jun-2013,1640.42
USD-US-SPX,04-Jun-2013,1631.38
USD-US-SPX,05-Jun-2013,1608.9
USD-US-SPX,06-Jun-2013,1622.56
USD-US-SPX,07-Jun-2013,1643.38
USD-US-SPX,10-Jun-2013,1642.81
USD-US-SPX,11-Jun-2013,1626.13
USD-US-SPX,12-Jun-2013,1612.52
USD-US-SPX,13-Jun-2013,1636.36
USD-US-SPX,14-Jun-2013,1626.73
USD-US-SPX,17-Jun-2013,1639.04
USD-US-SPX,18-Jun-2013,1651.81
USD-US-SPX,19-Jun-2013,1628.93
USD-US-SPX,20-Jun-2013,1588.19
USD-US-SPX,21-Jun-2013,1592.43
USD-US-SPX,24-Jun-2013,1573.09
USD-US-SPX,25-Jun-2013,1588.03
USD-US-SPX,26-Jun-2013,1603.26
USD-US-SPX,27-Jun-2013,1613.2
USD-US-SPX,28-Jun-2013,1606.28
USD-US-SPX,01-Jul-2013,1614.96
USD-US-SPX,02-Jul-2013,1614.08
USD-US-SPX,03-Jul-2013,1615.41
USD-US-SPX,04-Jul-2013,1615.41
USD-US-SPX,05-Jul-2013,1631.89
USD-US-SPX,08-Jul-2013,1640.46
USD-US-SPX,09-Jul-2013,1652.32
USD-US-SPX,10-Jul-2013,1652.62
USD-US-SPX,11-Jul-2013,1675.02
USD-US-SPX,12-Jul-2013,1680.19
USD-US-SPX,15-Jul-2013,1682.5
USD-US-SPX,16-Jul-2013,1676.26
USD-US-SPX,17-Jul-2013,1680.91
USD-US-SPX,18-Jul-2013,1689.37
USD-US-SPX,19-Jul-2013,1692.09
USD-US-SPX,22-Jul-2013,1695.53
USD-US-SPX,23-Jul-2013,1692.39
USD-US-SPX,24-Jul-2013,1685.94
USD-US-SPX,25-Jul-2013,1690.25
USD-US-SPX,26-Jul-2013,1691.65
USD-US-SPX,29-Jul-2013,1685.33
USD-US-SPX,30-Jul-2013,1685.96
USD-US-SPX,31-Jul-2013,1685.73
USD-US-SPX,01-Aug-2013,1706.87
USD-US-SPX,02-Aug-2013,1709.67
USD-US-SPX,05-Aug-2013,1707.14
USD-US-SPX,06-Aug-2013,1697.37
USD-US-SPX,07-Aug-2013,1690.91
USD-US-SPX,08-Aug-2013,1697.48
USD-US-SPX,09-Aug-2013,1691.42
USD-US-SPX,12-Aug-2013,1689.47
USD-US-SPX,13-Aug-2013,1694.16
USD-US-SPX,14-Aug-2013,1685.39
USD-US-SPX,15-Aug-2013,1661.32
USD-US-SPX,16-Aug-2013,1655.83
USD-US-SPX,19-Aug-2013,1646.06
USD-US-SPX,20-Aug-2013,1652.35
USD-US-SPX,21-Aug-2013,1642.8
USD-US-SPX,22-Aug-2013,1656.96
USD-US-SPX,23-Aug-2013,1663.5
USD-US-SPX,26-Aug-2013,1656.78
USD-US-SPX,27-Aug-2013,1630.48
USD-US-SPX,28-Aug-2013,1634.96
USD-US-SPX,29-Aug-2013,1638.17
USD-US-SPX,30-Aug-2013,1632.97
USD-US-SPX,02-Sep-2013,1632.97
USD-US-SPX,03-Sep-2013,1639.77
USD-US-SPX,04-Sep-2013,1653.08
USD-US-SPX,05-Sep-2013,1655.08
USD-US-SPX,06-Sep-2013,1655.17
USD-US-SPX,09-Sep-2013,1671.71
USD-US-SPX,10-Sep-2013,1683.99
USD-US-SPX,11-Sep-2013,1689.13
USD-US-SPX,12-Sep-2013,1683.42
USD-US-SPX,13-Sep-2013,1687.99
USD-US-SPX,16-Sep-2013,1697.6
USD-US-SPX,17-Sep-2013,1704.76
USD-US-SPX,18-Sep-2013,1725.52
USD-US-SPX,19-Sep-2013,1722.34
USD-US-SPX,20-Sep-2013,1709.91
USD-US-SPX,23-Sep-2013,1701.84
USD-US-SPX,24-Sep-2013,1697.42
USD-US-SPX,25-Sep-2013,1692.77
USD-US-SPX,26-Sep-2013,1698.67
USD-US-SPX,27-Sep-2013,1691.75
USD-US-SPX,30-Sep-2013,1681.55
USD-US-SPX,01-Oct-2013,1695.0
USD-US-SPX,02-Oct-2013,1693.87
USD-US-SPX,03-Oct-2013,1678.66
USD-US-SPX,04-Oct-2013,1690.5
USD-US-SPX,07-Oct-2013,1676.12
USD-US-SPX,08-Oct-2013,1655.45
USD-US-SPX,09-Oct-2013,1656.4
USD-US-SPX,10-Oct-2013,1692.56
USD-US-SPX,11-Oct-2013,1703.2
USD-US-SPX,14-Oct-2013,1710.14
USD-US-SPX,15-Oct-2013,1698.06
USD-US-SPX,16-Oct-2013,1721.54
USD-US-SPX,17-Oct-2013,1733.15
USD-US-SPX,18-Oct-2013,1744.5
USD-US-SPX,21-Oct-2013,1744.66
USD-US-SPX,22-Oct-2013,1754.67
USD-US-SPX,23-Oct-2013,1746.38
USD-US-SPX,24-Oct-2013,1752.07
USD-US-SPX,25-Oct-2013,1759.77
USD-US-SPX,28-Oct-2013,1762.11
USD-US-SPX,29-Oct-2013,1771.95
USD-US-SPX,30-Oct-2013,1763.31
USD-US-SPX,31-Oct-2013,1756.54
USD-US-SPX,01-Nov-2013,1761.64
USD-US-SPX,04-Nov-2013,1767.93
USD-US-SPX,05-Nov-2013,1762.97
USD-US-SPX,06-Nov-2013,1770.49
USD-US-SPX,07-Nov-2013,1747.15
USD-US-SPX,08-Nov-2013,1770.61
USD-US-SPX,11-Nov-2013,1771.89
USD-US-SPX,12-Nov-2013,1767.69
USD-US-SPX,13-Nov-2013,1782.0
USD-US-SPX,14-Nov-2013,1790.62
USD-US-SPX,15-Nov-2013,1798.18
USD-US-SPX,18-Nov-2013,1791.53
USD-US-SPX,19-Nov-2013,1787.87
USD-US-SPX,20-Nov-2013,1781.37
USD-US-SPX,21-Nov-2013,1795.85
USD-US-SPX,22-Nov-2013,1804.76
USD-US-SPX,25-Nov-2013,1802.48
USD-US-SPX,26-Nov-2013,1802.75
USD-US-SPX,27-Nov-2013,1807.23
USD-US-SPX,28-Nov-2013,1807.23
USD-US-SPX,29-Nov-2013,1805.81
USD-US-SPX,02-Dec-2013,1800.9
USD-US-SPX,03-Dec-2013,1795.15
USD-US-SPX,04-Dec-2013,1792.81
USD-US-SPX,05-Dec-2013,1785.03
USD-US-SPX,06-Dec-2013,1805.09
USD-US-SPX,09-Dec-2013,1808.37
USD-US-SPX,10-Dec-2013,1802.62
USD-US-SPX,11-Dec-2013,1782.22
USD-US-SPX,12-Dec-2013,1775.5
USD-US-SPX,13-Dec-2013,1775.32
USD-US-SPX,16-Dec-2013,1786.54
USD-US-SPX,17-Dec-2013,1781.0
USD-US-SPX,18-Dec-2013,1810.65
USD-US-SPX,19-Dec-2013,1809.6
USD-US-SPX,20-Dec-2013,1818.32
USD-US-SPX,23-Dec-2013,1827.99
USD-US-SPX,24-Dec-2013,1833.32
USD-US-SPX,25-Dec-2013,1833.32
USD-US-SPX,26-Dec-2013,1842.02
USD-US-SPX,27-Dec-2013,1841.4
USD-US-SPX,30-Dec-2013,1841.07
USD-US-SPX,31-Dec-2013,1848.36
USD-US-SPX,01-Jan-2014,1848.36
USD-US-SPX,02-Jan-2014,1831.98
USD-US-SPX,03-Jan-2014,1831.37
USD-US-SPX,06-Jan-2014,1826.77
USD-US-SPX,07-Jan-2014,1837.88
USD-US-SPX,08-Jan-2014,1837.49
USD-US-SPX,09-Jan-2014,1838.13
USD-US-SPX,10-Jan-2014,1842.37
USD-US-SPX,13-Jan-2014,1819.2
USD-US-SPX,14-Jan-2014,1838.88
USD-US-SPX,15-Jan-2014,1848.38
USD-US-SPX,16-Jan-2014,1845.89
USD-US-SPX,17-Jan-2014,1838.7
USD-US-SPX,20-Jan-2014,1838.7
USD-US-SPX,21-Jan-2014,1843.8
USD-US-SPX,22-Jan-2014,1844.86
USD-US-SPX,23-Jan-2014,1828.46
USD-US-SPX,24-Jan-2014,1790.29
USD-US-SPX,27-Jan-2014,1781.56
USD-US-SPX,28-Jan-2014,1792.5
USD-US-SPX,29-Jan-2014,1774.2
USD-US-SPX,30-Jan-2014,1794.19
USD-US-SPX,31-Jan-2014,1782.59
USD-US-SPX,03-Feb-2014,1741.89
USD-US-SPX,04-Feb-2014,1755.2
USD-US-SPX,05-Feb-2014,1751.64
USD-US-SPX,06-Feb-2014,1773.43
USD-US-SPX,07-Feb-2014,1797.02
USD-US-SPX,10-Feb-2014,1799.84
USD-US-SPX,11-Feb-2014,1819.75
USD-US-SPX,12-Feb-2014,1819.26
USD-US-SPX,13-Feb-2014,1829.83
USD-US-SPX,14-Feb-2014,1838.63
USD-US-SPX,17-Feb-2014,1838.63
USD-US-SPX,18-Feb-2014,1840.76
USD-US-SPX,19-Feb-2014,1828.75
USD-US-SPX,20-Feb-2014,1839.78
USD-US-SPX,21-Feb-2014,1836.25
USD-US-SPX,24-Feb-2014,1847.61
USD-US-SPX,25-Feb-2014,1845.12
USD-US-SPX,26-Feb-2014,1845.16
USD-US-SPX,27-Feb-2014,1854.29
USD-US-SPX,28-Feb-2014,1859.45
USD-US-SPX,03-Mar-2014,1845.73
USD-US-SPX,04-Mar-2014,1873.91
USD-US-SPX,05-Mar-2014,1873.81
USD-US-SPX,06-Mar-2014,1877.03
USD-US-SPX,07-Mar-2014,1878.04
USD-US-SPX,10-Mar-2014,1877.17
USD-US-SPX,11-Mar-2014,1867.63
USD-US-SPX,12-Mar-2014,1868.2
USD-US-SPX,13-Mar-2014,1846.34
USD-US-SPX,14-Mar-2014,1841.13
USD-US-SPX,17-Mar-2014,1858.83
USD-US-SPX,18-Mar-2014,1872.25
USD-US-SPX,19-Mar-2014,1860.77
USD-US-SPX,20-Mar-2014,1872.01
USD-US-SPX,21-Mar-2014,1866.52
USD-US-SPX,24-Mar-2014,1857.44
USD-US-SPX,25-Mar-2014,1865.62
USD-US-SPX,26-Mar-2014,1852.56
USD-US-SPX,27-Mar-2014,1849.04
USD-US-SPX,28-Mar-2014,1857.62
USD-US-SPX,31-Mar-2014,1872.34
USD-US-SPX,01-Apr-2014,1885.52
USD-US-SPX,02-Apr-2014,1890.9
USD-US-SPX,03-Apr-2014,1888.77
USD-US-SPX,04-Apr-2014,1865.09
USD-US-SPX,07-Apr-2014,1845.04
USD-US-SPX,08-Apr-2014,1851.96
USD-US-SPX,09-Apr-2014,1872.18
USD-US-SPX,10-Apr-2014,1833.08
USD-US-SPX,11-Apr-2014,1815.69
USD-US-SPX,14-Apr-2014,1830.61
USD-US-SPX,15-Apr-2014,1842.98
USD-US-SPX,16-Apr-2014,1862.31
USD-US-SPX,17-Apr-2014,1864.85
USD-US-SPX,18-Apr-2014,1864.85
USD-US-SPX,21-Apr-2014,1871.89
USD-US-SPX,22-Apr-2014,1879.55
USD-US-SPX,23-Apr-2014,1875.39
USD-US-SPX,24-Apr-2014,1878.61
USD-US-SPX,25-Apr-2014,1863.4
USD-US-SPX,28-Apr-2014,1869.43
USD-US-SPX,29-Apr-2014,1878.33
USD-US-SPX,30-Apr-2014,1883.95
USD-US-SPX,01-May-2014,1883.68
USD-US-SPX,02-May-2014,1881.14
USD-US-SPX,05-May-2014,1884.66
USD-US-SPX,06-May-2014,1867.72
USD-US-SPX,07-May-2014,1878.21
USD-US-SPX,08-May-2014,1875.63
USD-US-SPX,09-May-2014,1878.48
USD-US-SPX,12-May-2014,1896.65
USD-US-SPX,13-May-2014,1897.45
USD-US-SPX,14-May-2014,1888.53
USD-US-SPX,15-May-2014,1870.85
USD-US-SPX,16-May-2014,1877.86
USD-US-SPX,19-May-2014,1885.08
USD-US-SPX,20-May-2014,1872.83
USD-US-SPX,21-May-2014,1888.03
USD-US-SPX,22-May-2014,1892.49
USD-US-SPX,23-May-2014,1900.53
USD-US-SPX,26-May-2014,1900.53
USD-US-SPX,27-May-2014,1911.91
USD-US-SPX,28-May-2014,1909.78
USD-US-SPX,29-May-2014,1920.03
USD-US-SPX,30-May-2014,1923.57
USD-US-SPX,02-Jun-2014,1924.97
USD-US-SPX,03-Jun-2014,1924.24
USD-US-SPX,04-Jun-2014,1927.88
USD-US-SPX,05-Jun-2014,1940.46
USD-US-SPX,06-Jun-2014,1949.44
USD-US-SPX,09-Jun-2014,1951.27
USD-US-SPX,10-Jun-2014,1950.79
USD-US-SPX,11-Jun-2014,1943.89
USD-US-SPX,12-Jun-2014,1930.11
USD-US-SPX,13-Jun-2014,1936.16
USD-US-SPX,16-Jun-2014,1937.78
USD-US-SPX,17-Jun-2014,1941.99
USD-US-SPX,18-Jun-2014,1956.98
USD-US-SPX,19-Jun-2014,1959.48
USD-US-SPX,20-Jun-2014,1962.87
USD-US-SPX,23-Jun-2014,1962.61
USD-US-SPX,24-Jun-2014,1949.98
USD-US-SPX,25-Jun-2014,1959.53
USD-US-SPX,26-Jun-2014,1957.22
USD-US-SPX,27-Jun-2014,1960.96
USD-US-SPX,30-Jun-2014,1960.23
USD-US-SPX,01-Jul-2014,1973.32
USD-US-SPX,02-Jul-2014,1974.62
USD-US-SPX,03-Jul-2014,1985.44
USD-US-SPX,04-Jul-2014,1985.44
USD-US-SPX,07-Jul-2014,1977.65
USD-US-SPX,08-Jul-2014,1963.71
USD-US-SPX,09-Jul-2014,1972.83
USD-US-SPX,10-Jul-2014,1964.68
USD-US-SPX,11-Jul-2014,1967.57
USD-US-SPX,14-Jul-2014,1977.1
USD-US-SPX,15-Jul-2014,1973.28
USD-US-SPX,16-Jul-2014,1981.57
USD-US-SPX,17-Jul-2014,1958.12
USD-US-SPX,18-Jul-2014,1978.22
USD-US-SPX,21-Jul-2014,1973.63
USD-US-SPX,22-Jul-2014,1983.53
USD-US-SPX,23-Jul-2014,1987.01
USD-US-SPX,24-Jul-2014,1987.98
USD-US-SPX,25-Jul-2014,1978.34
USD-US-SPX,28-Jul-2014,1978.91
USD-US-SPX,29-Jul-2014,1969.95
USD-US-SPX,30-Jul-2014,1970.07
USD-US-SPX,31-Jul-2014,1930.67
USD-US-SPX,01-Aug-2014,1925.15
USD-US-SPX,04-Aug-2014,1938.99
USD-US-SPX,05-Aug-2014,1920.21
USD-US-SPX,06-Aug-2014,1920.24
USD-US-SPX,07-Aug-2014,1909.57
USD-US-SPX,08-Aug-2014,1931.59
USD-US-SPX,11-Aug-2014,1936.92
USD-US-SPX,12-Aug-2014,1933.75
USD-US-SPX,13-Aug-2014,1946.72
USD-US-SPX,14-Aug-2014,1955.18
USD-US-SPX,15-Aug-2014,1955.06
USD-US-SPX,18-Aug-2014,1971.74
USD-US-SPX,19-Aug-2014,1981.6
USD-US-SPX,20-Aug-2014,1986.51
USD-US-SPX,21-Aug-2014,1992.37
USD-US-SPX,22-Aug-2014,1988.4
USD-US-SPX,25-Aug-2014,1997.92
USD-US-SPX,26-Aug-2014,2000.02
USD-US-SPX,27-Aug-2014,2000.12
USD-US-SPX,28-Aug-2014,1996.74
USD-US-SPX,29-Aug-2014,2003.37
USD-US-SPX,01-Sep-2014,2003.37
USD-US-SPX,02-Sep-2014,2002.28
USD-US-SPX,03-Sep-2014,2000.72
USD-US-SPX,04-Sep-2014,1997.65
USD-US-SPX,05-Sep-2014,2007.71
USD-US-SPX,08-Sep-2014,2001.54
USD-US-SPX,09-Sep-2014,1988.44
USD-US-SPX,10-Sep-2014,1995.69
USD-US-SPX,11-Sep-2014,1997.45
USD-US-SPX,12-Sep-2014,1985.54
USD-US-SPX,15-Sep-2014,1984.13
USD-US-SPX,16-Sep-2014,1998.98
USD-US-SPX,17-Sep-2014,2001.57
USD-US-SPX,18-Sep-2014,2011.36
USD-US-SPX,19-Sep-2014,2010.4
USD-US-SPX,22-Sep-2014,1994.29
USD-US-SPX,23-Sep-2014,1982.77
USD-US-SPX,24-Sep-2014,1998.3
USD-US-SPX,25-Sep-2014,1965.99
USD-US-SPX,26-Sep-2014,1982.85
USD-US-SPX,29-Sep-2014,1977.8
USD-US-SPX,30-Sep-2014,1972.29
USD-US-SPX,01-Oct-2014,1946.16
USD-US-SPX,02-Oct-2014,1946.17
USD-US-SPX,03-Oct-2014,1967.9
USD-US-SPX,06-Oct-2014,1964.82
USD-US-SPX,07-Oct-2014,1935.1
USD-US-SPX,08-Oct-2014,1968.89
USD-US-SPX,09-Oct-2014,1928.21
USD-US-SPX,10-Oct-2014,1906.13
USD-US-SPX,13-Oct-2014,1874.74
USD-US-SPX,14-Oct-2014,1877.7
USD-US-SPX,15-Oct-2014,1862.49
USD-US-SPX,16-Oct-2014,1862.76
USD-US-SPX,17-Oct-2014,1886.76
USD-US-SPX,20-Oct-2014,1904.01
USD-US-SPX,21-Oct-2014,1941.28
USD-US-SPX,22-Oct-2014,1927.11
USD-US-SPX,23-Oct-2014,1950.82
USD-US-SPX,24-Oct-2014,1964.58
USD-US-SPX,27-Oct-2014,1961.63
USD-US-SPX,28-Oct-2014,1985.05
USD-US-SPX,29-Oct-2014,1982.3
USD-US-SPX,30-Oct-2014,1994.65
USD-US-SPX,31-Oct-2014,2018.05
USD-US-SPX,03-Nov-2014,2017.81
USD-US-SPX,04-Nov-2014,2012.1
USD-US-SPX,05-Nov-2014,2023.57
USD-US-SPX,06-Nov-2014,2031.21
USD-US-SPX,07-Nov-2014,2031.92
USD-US-SPX,10-Nov-2014,2038.26
USD-US-SPX,11-Nov-2014,2039.68
USD-US-SPX,12-Nov-2014,2038.25
USD-US-SPX,13-Nov-2014,2039.33
USD-US-SPX,14-Nov-2014,2039.82
USD-US-SPX,17-Nov-2014,2041.32
USD-US-SPX,18-Nov-2014,2051.8
USD-US-SPX,19-Nov-2014,2048.72
USD-US-SPX,20-Nov-2014,2052.75
USD-US-SPX,21-Nov-2014,2063.5
USD-US-SPX,24-Nov-2014,2069.41
USD-US-SPX,25-Nov-2014,2067.03
USD-US-SPX,26-Nov-2014,2072.83
USD-US-SPX,27-Nov-2014,2072.83
USD-US-SPX,28-Nov-2014,2067.56
USD-US-SPX,01-Dec-2014,2053.44
USD-US-SPX,02-Dec-2014,2066.55
USD-US-SPX,03-Dec-2014,2074.33
USD-US-SPX,04-Dec-2014,2071.92
USD-US-SPX,05-Dec-2014,2075.37
USD-US-SPX,08-Dec-2014,2060.31
USD-US-SPX,09-Dec-2014,2059.82
USD-US-SPX,10-Dec-2014,2026.14
USD-US-SPX,11-Dec-2014,2035.33
USD-US-SPX,12-Dec-2014,2002.33
USD-US-SPX,15-Dec-2014,1989.63
USD-US-SPX,16-Dec-2014,1972.74
USD-US-SPX,17-Dec-2014,2012.89
USD-US-SPX,18-Dec-2014,2061.23
USD-US-SPX,19-Dec-2014,2070.65
USD-US-SPX,22-Dec-2014,2078.54
USD-US-SPX,23-Dec-2014,2082.17
USD-US-SPX,24-Dec-2014,2081.88
USD-US-SPX,25-Dec-2014,2081.88
USD-US-SPX,26-Dec-2014,2088.77
USD-US-SPX,29-Dec-2014,2090.57
USD-US-SPX,30-Dec-2014,2080.35
USD-US-SPX,31-Dec-2014,2058.9
USD-US-SPX,01-Jan-2015,2058.9
USD-US-SPX,02-Jan-2015,2058.2
USD-US-SPX,05-Jan-2015,2020.58
USD-US-SPX,06-Jan-2015,2002.61
USD-US-SPX,07-Jan-2015,2025.9
USD-US-SPX,08-Jan-2015,2062.14
USD-US-SPX,09-Jan-2015,2044.81
USD-US-SPX,12-Jan-2015,2028.26
USD-US-SPX,13-Jan-2015,2023.03
USD-US-SPX,14-Jan-2015,2011.27
USD-US-SPX,15-Jan-2015,1992.67
USD-US-SPX,16-Jan-2015,2019.42
USD-US-SPX,19-Jan-2015,2019.42
USD-US-SPX,20-Jan-2015,2022.55
USD-US-SPX,21-Jan-2015,2032.12
USD-US-SPX,22-Jan-2015,2063.15
USD-US-SPX,23-Jan-2015,2051.82
USD-US-SPX,26-Jan-2015,2057.09
USD-US-SPX,27-Jan-2015,2029.55
USD-US-SPX,28-Jan-2015,2002.16
USD-US-SPX,29-Jan-2015,2021.25
USD-US-SPX,30-Jan-2015,1994.99
USD-US-SPX,02-Feb-2015,2020.85
USD-US-SPX,03-Feb-2015,2050.03
USD-US-SPX,04-Feb-2015,2041.51
USD-US-SPX,05-Feb-2015,2062.52
USD-US-SPX,06-Feb-2015,2055.47
USD-US-SPX,09-Feb-2015,2046.74
USD-US-SPX,10-Feb-2015,2068.59
USD-US-SPX,11-Feb-2015,2068.53
USD-US-SPX,12-Feb-2015,2088.48
USD-US-SPX,13-Feb-2015,2096.99
USD-US-SPX,16-Feb-2015,2096.99
USD-US-SPX,17-Feb-2015,2100.34
USD-US-SPX,18-Feb-2015,2099.68
USD-US-SPX,19-Feb-2015,2097.45
USD-US-SPX,20-Feb-2015,2110.3
USD-US-SPX,23-Feb-2015,2109.66
USD-US-SPX,24-Feb-2015,2115.48
USD-US-SPX,25-Feb-2015,2113.86
USD-US-SPX,26-Feb-2015,2110.74
USD-US-SPX,27-Feb-2015,2104.5
USD-US-SPX,02-Mar-2015,2117.39
USD-US-SPX,03-Mar-2015,2107.78
USD-US-SPX,04-Mar-2015,2098.53
USD-US-SPX,05-Mar-2015,2101.04
USD-US-SPX,06-Mar-2015,2071.26
USD-US-SPX,09-Mar-2015,2079.43
USD-US-SPX,10-Mar-2015,2044.16
USD-US-SPX,11-Mar-2015,2040.24
USD-US-SPX,12-Mar-2015,2065.95
USD-US-SPX,13-Mar-2015,2053.4
USD-US-SPX,16-Mar-2015,2081.19
USD-US-SPX,17-Mar-2015,2074.28
USD-US-SPX,18-Mar-2015,2099.5
USD-US-SPX,19-Mar-2015,2089.27
USD-US-SPX,20-Mar-2015,2108.1
USD-US-SPX,23-Mar-2015,2104.42
USD-US-SPX,24-Mar-2015,2091.5
USD-US-SPX,25-Mar-2015,2061.05
USD-US-SPX,26-Mar-2015,2056.15
USD-US-SPX,27-Mar-2015,2061.02
USD-US-SPX,30-Mar-2015,2086.24
USD-US-SPX,31-Mar-2015,2067.89
USD-US-SPX,01-Apr-2015,2059.69
USD-US-SPX,02-Apr-2015,2066.96
USD-US-SPX,03-Apr-2015,2066.96
USD-US-SPX,06-Apr-2015,2080.62
USD-US-SPX,07-Apr-2015,2076.33
USD-US-SPX,08-Apr-2015,2081.9
USD-US-SPX,09-Apr-2015,2091.18
USD-US-SPX,10-Apr-2015,2102.06
USD-US-SPX,13-Apr-2015,2092.43
USD-US-SPX,14-Apr-2015,2095.84
USD-US-SPX,15-Apr-2015,2106.63
USD-US-SPX,16-Apr-2015,2104.99
USD-US-SPX,17-Apr-2015,2081.18
USD-US-SPX,20-Apr-2015,2100.4
USD-US-SPX,21-Apr-2015,2097.29
USD-US-SPX,22-Apr-2015,2107.96
USD-US-SPX,23-Apr-2015,2112.93
USD-US-SPX,24-Apr-2015,2117.69
USD-US-SPX,27-Apr-2015,2108.92
USD-US-SPX,28-Apr-2015,2114.76
USD-US-SPX,29-Apr-2015,2106.85
USD-US-SPX,30-Apr-2015,2085.51
USD-US-SPX,01-May-2015,2108.29
USD-US-SPX,04-May-2015,2114.49
USD-US-SPX,05-May-2015,2089.46
USD-US-SPX,06-May-2015,2080.15
USD-US-SPX,07-May-2015,2088.0
USD-US-SPX,08-May-2015,2116.1
USD-US-SPX,11-May-2015,2105.33
USD-US-SPX,12-May-2015,2099.12
USD-US-SPX,13-May-2015,2098.48
USD-US-SPX,14-May-2015,2121.1
USD-US-SPX,15-May-2015,2122.73
USD-US-SPX,18-May-2015,2129.2
USD-US-SPX,19-May-2015,2127.83
USD-US-SPX,20-May-2015,2125.85
USD-US-SPX,21-May-2015,2130.82
USD-US-SPX,22-May-2015,2126.06
USD-US-SPX,25-May-2015,2126.06
USD-US-SPX,26-May-2015,2104.2
USD-US-SPX,27-May-2015,2123.48
USD-US-SPX,28-May-2015,2120.79
USD-US-SPX,29-May-2015,2107.39
USD-US-SPX,01-Jun-2015,2111.73
USD-US-SPX,02-Jun-2015,2109.6
USD-US-SPX,03-Jun-2015,2114.07
USD-US-SPX,04-Jun-2015,2095.84
USD-US-SPX,05-Jun-2015,2092.83
USD-US-SPX,08-Jun-2015,2079.28
USD-US-SPX,09-Jun-2015,2080.15
USD-US-SPX,10-Jun-2015,2105.2
USD-US-SPX,11-Jun-2015,2108.86
USD-US-SPX,12-Jun-2015,2094.11
USD-US-SPX,15-Jun-2015,2084.43
USD-US-SPX,16-Jun-2015,2096.29
USD-US-SPX,17-Jun-2015,2100.44
USD-US-SPX,18-Jun-2015,2121.24
USD-US-SPX,19-Jun-2015,2109.99
USD-US-SPX,22-Jun-2015,2122.85
USD-US-SPX,23-Jun-2015,2124.2
USD-US-SPX,24-Jun-2015,2108.58
USD-US-SPX,25-Jun-2015,2102.31
USD-US-SPX,26-Jun-2015,2101.49
USD-US-SPX,29-Jun-2015,2057.64
USD-US-SPX,30-Jun-2015,2063.11
USD-US-SPX,01-Jul-2015,2077.42
USD-US-SPX,02-Jul-2015,2076.78
USD-US-SPX,03-Jul-2015,2076.78
USD-US-SPX,06-Jul-2015,2068.76
USD-US-SPX,07-Jul-2015,2081.34
USD-US-SPX,08-Jul-2015,2046.68
USD-US-SPX,09-Jul-2015,2051.31
USD-US-SPX,10-Jul-2015,2076.62
USD-US-SPX,13-Jul-2015,2099.6
USD-US-SPX,14-Jul-2015,2108.95
USD-US-SPX,15-Jul-2015,2107.4
USD-US-SPX,16-Jul-2015,2124.29
USD-US-SPX,17-Jul-2015,2126.64
USD-US-SPX,20-Jul-2015,2128.28
USD-US-SPX,21-Jul-2015,2119.21
USD-US-SPX,22-Jul-2015,2114.15
USD-US-SPX,23-Jul-2015,2102.15
USD-US-SPX,24-Jul-2015,2079.65
USD-US-SPX,27-Jul-2015,2067.64
USD-US-SPX,28-Jul-2015,2093.25
USD-US-SPX,29-Jul-2015,2108.57
USD-US-SPX,30-Jul-2015,2108.63
USD-US-SPX,31-Jul-2015,2103.84
USD-US-SPX,03-Aug-2015,2098.04
USD-US-SPX,04-Aug-2015,2093.32
USD-US-SPX,05-Aug-2015,2099.84
USD-US-SPX,06-Aug-2015,2083.56
USD-US-SPX,07-Aug-2015,2077.57
USD-US-SPX,10-Aug-2015,2104.18
USD-US-SPX,11-Aug-2015,2084.07
USD-US-SPX,12-Aug-2015,2086.05
USD-US-SPX,13-Aug-2015,2083.39
USD-US-SPX,14-Aug-2015,2091.54
USD-US-SPX,17-Aug-2015,2102.44
USD-US-SPX,18-Aug-2015,2096.92
USD-US-SPX,19-Aug-2015,2079.61
USD-US-SPX,20-Aug-2015,2035.73
USD-US-SPX,21-Aug-2015,1970.89
USD-US-SPX,24-Aug-2015,1893.21
USD-US-SPX,25-Aug-2015,1867.61
USD-US-SPX,26-Aug-2015,1940.51
USD-US-SPX,27-Aug-2015,1987.66
USD-US-SPX,28-Aug-2015,1988.87
USD-US-SPX,31-Aug-2015,1972.18
USD-US-SPX,01-Sep-2015,1913.85
USD-US-SPX,02-Sep-2015,1948.86
USD-US-SPX,03-Sep-2015,1951.13
USD-US-SPX,04-Sep-2015,1921.22
USD-US-SPX,07-Sep-2015,1921.22
USD-US-SPX,08-Sep-2015,1969.41
USD-US-SPX,09-Sep-2015,1942.04
USD-US-SPX,10-Sep-2015,1952.29
USD-US-SPX,11-Sep-2015,1961.05
USD-US-SPX,14-Sep-2015,1953.03
USD-US-SPX,15-Sep-2015,1978.09
USD-US-SPX,16-Sep-2015,1995.31
USD-US-SPX,17-Sep-2015,1990.2
USD-US-SPX,18-Sep-2015,1958.03
USD-US-SPX,21-Sep-2015,1966.97
USD-US-SPX,22-Sep-2015,1942.74
USD-US-SPX,23-Sep-2015,1938.76
USD-US-SPX,24-Sep-2015,1932.24
USD-US-SPX,25-Sep-2015,1931.34
USD-US-SPX,28-Sep-2015,1881.77
USD-US-SPX,29-Sep-2015,1884.09
USD-US-SPX,30-Sep-2015,1920.03
USD-US-SPX,01-Oct-2015,1923.82
USD-US-SPX,02-Oct-2015,1951.36
USD-US-SPX,05-Oct-2015,1987.05
USD-US-SPX,06-Oct-2015,1979.92
USD-US-SPX,07-Oct-2015,1995.83
USD-US-SPX,08-Oct-2015,2013.43
USD-US-SPX,09-Oct-2015,2014.89
USD-US-SPX,12-Oct-2015,2017.46
USD-US-SPX,13-Oct-2015,2003.69
USD-US-SPX,14-Oct-2015,1994.24
USD-US-SPX,15-Oct-2015,2023.86
USD-US-SPX,16-Oct-2015,2033.11
USD-US-SPX,19-Oct-2015,2033.66
USD-US-SPX,20-Oct-2015,2030.77
USD-US-SPX,21-Oct-2015,2018.94
USD-US-SPX,22-Oct-2015,2052.51
USD-US-SPX,23-Oct-2015,2075.15
USD-US-SPX,26-Oct-2015,2071.18
USD-US-SPX,27-Oct-2015,2065.89
USD-US-SPX,28-Oct-2015,2090.35
USD-US-SPX,29-Oct-2015,2089.41
USD-US-SPX,30-Oct-2015,2079.36
USD-US-SPX,02-Nov-2015,2104.05
USD-US-SPX,03-Nov-2015,2109.79
USD-US-SPX,04-Nov-2015,2102.31
USD-US-SPX,05-Nov-2015,2099.93
USD-US-SPX,06-Nov-2015,2099.2
USD-US-SPX,09-Nov-2015,2078.58
USD-US-SPX,10-Nov-2015,2081.72
USD-US-SPX,11-Nov-2015,2075.0
USD-US-SPX,12-Nov-2015,2045.97
USD-US-SPX,13-Nov-2015,2023.04
USD-US-SPX,16-Nov-2015,2053.19
USD-US-SPX,17-Nov-2015,2050.44
USD-US-SPX,18-Nov-2015,2083.58
USD-US-SPX,19-Nov-2015,2081.24
USD-US-SPX,20-Nov-2015,2089.17
USD-US-SPX,23-Nov-2015,2086.59
USD-US-SPX,24-Nov-2015,2089.14
USD-US-SPX,25-Nov-2015,2088.87
USD-US-SPX,26-Nov-2015,2088.87
USD-US-SPX,27-Nov-2015,2090.11
USD-US-SPX,30-Nov-2015,2080.41
USD-US-SPX,01-Dec-2015,2102.63
USD-US-SPX,02-Dec-2015,2079.51
USD-US-SPX,03-Dec-2015,2049.62
USD-US-SPX,04-Dec-2015,2091.69
USD-US-SPX,07-Dec-2015,2077.07
USD-US-SPX,08-Dec-2015,2063.59
USD-US-SPX,09-Dec-2015,2047.62
USD-US-SPX,10-Dec-2015,2052.23
USD-US-SPX,11-Dec-2015,2012.37
USD-US-SPX,14-Dec-2015,2021.94
USD-US-SPX,15-Dec-2015,2043.41
USD-US-SPX,16-Dec-2015,2073.07
USD-US-SPX,17-Dec-2015,2041.89
USD-US-SPX,18-Dec-2015,2005.55
USD-US-SPX,21-Dec-2015,2021.15
USD-US-SPX,22-Dec-2015,2038.97
USD-US-SPX,23-Dec-2015,2064.29
USD-US-SPX,24-Dec-2015,2060.99
USD-US-SPX,25-Dec-2015,2060.99
USD-US-SPX,28-Dec-2015,2056.5
USD-US-SPX,29-Dec-2015,2078.36
USD-US-SPX,30-Dec-2015,2063.36
USD-US-SPX,31-Dec-2015,2043.94
USD-US-SPX,01-Jan-2016,2043.94
USD-US-SPX,04-Jan-2016,2012.66
USD-US-SPX,05-Jan-2016,2016.71
USD-US-SPX,06-Jan-2016,1990.26
USD-US-SPX,07-Jan-2016,1943.09
USD-US-SPX,08-Jan-2016,1922.03
USD-US-SPX,11-Jan-2016,1923.67
USD-US-SPX,12-Jan-2016,1938.68
USD-US-SPX,13-Jan-2016,1890.28
USD-US-SPX,14-Jan-2016,1921.84
USD-US-SPX,15-Jan-2016,1880.33
USD-US-SPX,18-Jan-2016,1880.33
USD-US-SPX,19-Jan-2016,1881.33
USD-US-SPX,20-Jan-2016,1859.33
USD-US-SPX,21-Jan-2016,1868.99
USD-US-SPX,22-Jan-2016,1906.9
USD-US-SPX,25-Jan-2016,1877.08
USD-US-SPX,26-Jan-2016,1903.63
USD-US-SPX,27-Jan-2016,1882.95
USD-US-SPX,28-Jan-2016,1893.36
USD-US-SPX,29-Jan-2016,1940.24
USD-US-SPX,01-Feb-2016,1939.38
USD-US-SPX,02-Feb-2016,1903.03
USD-US-SPX,03-Feb-2016,1912.53
USD-US-SPX,04-Feb-2016,1915.45
USD-US-SPX,05-Feb-2016,1880.05
USD-US-SPX,08-Feb-2016,1853.44
USD-US-SPX,09-Feb-2016,1852.21
USD-US-SPX,10-Feb-2016,1851.86
USD-US-SPX,11-Feb-2016,1829.08
USD-US-SPX,12-Feb-2016,1864.78
USD-US-SPX,15-Feb-2016,1864.78
USD-US-SPX,16-Feb-2016,1895.58
USD-US-SPX,17-Feb-2016,1926.82
USD-US-SPX,18-Feb-2016,1917.83
USD-US-SPX,19-Feb-2016,1917.78
USD-US-SPX,22-Feb-2016,1945.5
USD-US-SPX,23-Feb-2016,1921.27
USD-US-SPX,24-Feb-2016,1929.8
USD-US-SPX,25-Feb-2016,1951.7
USD-US-SPX,26-Feb-2016,1948.05
USD-US-SPX,29-Feb-2016,1932.23
USD-US-SPX,01-Mar-2016,1978.35
USD-US-SPX,02-Mar-2016,1986.45
USD-US-SPX,03-Mar-2016,1993.4
USD-US-SPX,04-Mar-2016,1999.99
USD-US-SPX,07-Mar-2016,2001.76
USD-US-SPX,08-Mar-2016,1979.26
USD-US-SPX,09-Mar-2016,1989.26
USD-US-SPX,10-Mar-2016,1989.57
USD-US-SPX,11-Mar-2016,2022.19
USD-US-SPX,14-Mar-2016,2019.64
USD-US-SPX,15-Mar-2016,2015.93
USD-US-SPX,16-Mar-2016,2027.22
USD-US-SPX,17-Mar-2016,2040.59
USD-US-SPX,18-Mar-2016,2049.58
USD-US-SPX,21-Mar-2016,2051.6
USD-US-SPX,22-Mar-2016,2049.8
USD-US-SPX,23-Mar-2016,2036.71
USD-US-SPX,24-Mar-2016,2035.94
USD-US-SPX,25-Mar-2016,2035.94
USD-US-SPX,28-Mar-2016,2037.05
USD-US-SPX,29-Mar-2016,2055.01
USD-US-SPX,30-Mar-2016,2063.95
USD-US-SPX,31-Mar-2016,2059.74
USD-US-SPX,01-Apr-2016,2072.78
USD-US-SPX,04-Apr-2016,2066.13
USD-US-SPX,05-Apr-2016,2045.17
USD-US-SPX,06-Apr-2016,2066.66
USD-US-SPX,07-Apr-2016,2041.91
USD-US-SPX,08-Apr-2016,2047.6
USD-US-SPX,11-Apr-2016,2041.99
USD-US-SPX,12-Apr-2016,2061.72
USD-US-SPX,13-Apr-2016,2082.42
USD-US-SPX,14-Apr-2016,2082.78
USD-US-SPX,15-Apr-2016,2080.73
USD-US-SPX,18-Apr-2016,2094.34
USD-US-SPX,19-Apr-2016,2100.8
USD-US-SPX,20-Apr-2016,2102.4
USD-US-SPX,21-Apr-2016,2091.48
USD-US-SPX,22-Apr-2016,2091.58
USD-US-SPX,25-Apr-2016,2087.79
USD-US-SPX,26-Apr-2016,2091.7
USD-US-SPX,27-Apr-2016,2095.15
USD-US-SPX,28-Apr-2016,2075.81
USD-US-SPX,29-Apr-2016,2065.3
USD-US-SPX,02-May-2016,2081.43
USD-US-SPX,03-May-2016,2063.37
USD-US-SPX,04-May-2016,2051.12
USD-US-SPX,05-May-2016,2050.63
USD-US-SPX,06-May-2016,2057.14
USD-US-SPX,09-May-2016,2058.69
USD-US-SPX,10-May-2016,2084.39
USD-US-SPX,11-May-2016,2064.46
USD-US-SPX,12-May-2016,2064.11
USD-US-SPX,13-May-2016,2046.61
USD-US-SPX,16-May-2016,2066.66
USD-US-SPX,17-May-2016,2047.21
USD-US-SPX,18-May-2016,2047.63
USD-US-SPX,19-May-2016,2040.04
USD-US-SPX,20-May-2016,2052.32
USD-US-SPX,23-May-2016,2048.04
USD-US-SPX,24-May-2016,2076.06
USD-US-SPX,25-May-2016,2090.54
USD-US-SPX,26-May-2016,2090.1
USD-US-SPX,27-May-2016,2099.06
USD-US-SPX,30-May-2016,2099.06
USD-US-SPX,31-May-2016,2096.96
USD-US-SPX,01-Jun-2016,2099.33
USD-US-SPX,02-Jun-2016,2105.26
USD-US-SPX,03-Jun-2016,2099.13
USD-US-SPX,06-Jun-2016,2109.41
USD-US-SPX,07-Jun-2016,2112.13
USD-US-SPX,08-Jun-2016,2119.12
USD-US-SPX,09-Jun-2016,2115.48
USD-US-SPX,10-Jun-2016,2096.07
USD-US-SPX,13-Jun-2016,2079.06
USD-US-SPX,14-Jun-2016,2075.32
USD-US-SPX,15-Jun-2016,2071.5
USD-US-SPX,16-Jun-2016,2077.99
USD-US-SPX,17-Jun-2016,2071.22
USD-US-SPX,20-Jun-2016,2083.25
USD-US-SPX,21-Jun-2016,2088.9
USD-US-SPX,22-Jun-2016,2085.45
USD-US-SPX,23-Jun-2016,2113.32
USD-US-SPX,24-Jun-2016,2037.41
USD-US-SPX,27-Jun-2016,2000.54
USD-US-SPX,28-Jun-2016,2036.09
USD-US-SPX,29-Jun-2016,2070.77
USD-US-SPX,30-Jun-2016,2098.86
USD-US-SPX,01-Jul-2016,2102.95
USD-US-SPX,04-Jul-2016,2102.95
USD-US-SPX,05-Jul-2016,2088.55
USD-US-SPX,06-Jul-2016,2099.73
USD-US-SPX,07-Jul-2016,2097.9
USD-US-SPX,08-Jul-2016,2129.9
USD-US-SPX,11-Jul-2016,2137.16
USD-US-SPX,12-Jul-2016,2152.14
USD-US-SPX,13-Jul-2016,2152.43
USD-US-SPX,14-Jul-2016,2163.75
USD-US-SPX,15-Jul-2016,2161.74
USD-US-SPX,18-Jul-2016,2166.89
USD-US-SPX,19-Jul-2016,2163.78
USD-US-SPX,20-Jul-2016,2173.02
USD-US-SPX,21-Jul-2016,2165.17
USD-US-SPX,22-Jul-2016,2175.03
USD-US-SPX,25-Jul-2016,2168.48
USD-US-SPX,26-Jul-2016,2169.18
USD-US-SPX,27-Jul-2016,2166.58
USD-US-SPX,28-Jul-2016,2170.06
USD-US-SPX,29-Jul-2016,2173.6
USD-US-SPX,01-Aug-2016,2170.84
USD-US-SPX,02-Aug-2016,2157.03
USD-US-SPX,03-Aug-2016,2163.79
USD-US-SPX,04-Aug-2016,2164.25
USD-US-SPX,05-Aug-2016,2182.87
USD-US-SPX,08-Aug-2016,2180.89
USD-US-SPX,09-Aug-2016,2181.74
USD-US-SPX,10-Aug-2016,2175.49
USD-US-SPX,11-Aug-2016,2185.79
USD-US-SPX,12-Aug-2016,2184.05
USD-US-SPX,15-Aug-2016,2190.15
USD-US-SPX,16-Aug-2016,2178.15
USD-US-SPX,17-Aug-2016,2182.22
USD-US-SPX,18-Aug-2016,2187.02
USD-US-SPX,19-Aug-2016,2183.87
USD-US-SPX,22-Aug-2016,2182.64
USD-US-SPX,23-Aug-2016,2186.9
USD-US-SPX,24-Aug-2016,2175.44
USD-US-SPX,25-Aug-2016,2172.47
USD-US-SPX,26-Aug-2016,2169.04
USD-US-SPX,29-Aug-2016,2180.38
USD-US-SPX,30-Aug-2016,2176.12
USD-US-SPX,31-Aug-2016,2170.95
USD-US-SPX,01-Sep-2016,2170.86
USD-US-SPX,02-Sep-2016,2179.98
USD-US-SPX,05-Sep-2016,2179.98
USD-US-SPX,06-Sep-2016,2186.48
USD-US-SPX,07-Sep-2016,2186.16
USD-US-SPX,08-Sep-2016,2181.3
USD-US-SPX,09-Sep-2016,2127.81
USD-US-SPX,12-Sep-2016,2159.04
USD-US-SPX,13-Sep-2016,2127.02
USD-US-SPX,14-Sep-2016,2125.77
USD-US-SPX,15-Sep-2016,2147.26
USD-US-SPX,16-Sep-2016,2139.16
USD-US-SPX,19-Sep-2016,2139.12
USD-US-SPX,20-Sep-2016,2139.76
USD-US-SPX,21-Sep-2016,2163.12
USD-US-SPX,22-Sep-2016,2177.18
USD-US-SPX,23-Sep-2016,2164.69
USD-US-SPX,26-Sep-2016,2146.1
USD-US-SPX,27-Sep-2016,2159.93
USD-US-SPX,28-Sep-2016,2171.37
USD-US-SPX,29-Sep-2016,2151.13
USD-US-SPX,30-Sep-2016,2168.27
USD-US-SPX,03-Oct-2016,2161.2
USD-US-SPX,04-Oct-2016,2150.49
USD-US-SPX,05-Oct-2016,2159.73
USD-US-SPX,06-Oct-2016,2160.77
USD-US-SPX,07-Oct-2016,2153.74
USD-US-SPX,10-Oct-2016,2163.66
USD-US-SPX,11-Oct-2016,2136.73
USD-US-SPX,12-Oct-2016,2139.18
USD-US-SPX,13-Oct-2016,2132.55
USD-US-SPX,14-Oct-2016,2132.98
USD-US-SPX,17-Oct-2016,2126.5
USD-US-SPX,18-Oct-2016,2139.6
USD-US-SPX,19-Oct-2016,2144.29
USD-US-SPX,20-Oct-2016,2141.34
USD-US-SPX,21-Oct-2016,2141.16
USD-US-SPX,24-Oct-2016,2151.33
USD-US-SPX,25-Oct-2016,2143.16
USD-US-SPX,26-Oct-2016,2139.43
USD-US-SPX,27-Oct-2016,2133.04
USD-US-SPX,28-Oct-2016,2126.41
USD-US-SPX,31-Oct-2016,2126.15
USD-US-SPX,01-Nov-2016,2111.72
USD-US-SPX,02-Nov-2016,2097.94
USD-US-SPX,03-Nov-2016,2088.66
USD-US-SPX,04-Nov-2016,2085.18
USD-US-SPX,07-Nov-2016,2131.52
USD-US-SPX,08-Nov-2016,2139.56
USD-US-SPX,09-Nov-2016,2163.26
USD-US-SPX,10-Nov-2016,2167.48
USD-US-SPX,11-Nov-2016,2164.45
USD-US-SPX,14-Nov-2016,2164.2
USD-US-SPX,15-Nov-2016,2180.39
USD-US-SPX,16-Nov-2016,2176.94
USD-US-SPX,17-Nov-2016,2187.12
USD-US-SPX,18-Nov-2016,2181.9
USD-US-SPX,21-Nov-2016,2198.18
USD-US-SPX,22-Nov-2016,2202.94
USD-US-SPX,23-Nov-2016,2204.72
USD-US-SPX,24-Nov-2016,2204.72
USD-US-SPX,25-Nov-2016,2213.35
USD-US-SPX,28-Nov-2016,2201.72
USD-US-SPX,29-Nov-2016,2204.66
USD-US-SPX,30-Nov-2016,2198.81
USD-US-SPX,01-Dec-2016,2191.08
USD-US-SPX,02-Dec-2016,2191.95
USD-US-SPX,05-Dec-2016,2204.71
USD-US-SPX,06-Dec-2016,2212.23
USD-US-SPX,07-Dec-2016,2241.35
USD-US-SPX,08-Dec-2016,2246.19
USD-US-SPX,09-Dec-2016,2259.53
USD-US-SPX,12-Dec-2016,2256.96
USD-US-SPX,13-Dec-2016,2271.72
USD-US-SPX,14-Dec-2016,2253.28
USD-US-SPX,15-Dec-2016,2262.03
USD-US-SPX,16-Dec-2016,2258.07
USD-US-SPX,19-Dec-2016,2262.53
USD-US-SPX,20-Dec-2016,2270.76
USD-US-SPX,21-Dec-2016,2265.18
USD-US-SPX,22-Dec-2016,2260.96
USD-US-SPX,23-Dec-2016,2263.79
USD-US-SPX,26-Dec-2016,2263.79
USD-US-SPX,27-Dec-2016,2268.88
USD-US-SPX,28-Dec-2016,2249.92
USD-US-SPX,29-Dec-2016,2249.26
USD-US-SPX,30-Dec-2016,2238.83
USD-US-SPX,02-Jan-2017,2238.83
USD-US-SPX,03-Jan-2017,2257.83
USD-US-SPX,04-Jan-2017,2270.75
USD-US-SPX,05-Jan-2017,2269.0
USD-US-SPX,06-Jan-2017,2276.98
USD-US-SPX,09-Jan-2017,2268.9
USD-US-SPX,10-Jan-2017,2268.9
USD-US-SPX,11-Jan-2017,2275.32
USD-US-SPX,12-Jan-2017,2270.44
USD-US-SPX,13-Jan-2017,2274.64
USD-US-SPX,16-Jan-2017,2274.64
USD-US-SPX,17-Jan-2017,2267.89
USD-US-SPX,18-Jan-2017,2271.89
USD-US-SPX,19-Jan-2017,2263.69
USD-US-SPX,20-Jan-2017,2271.31
USD-US-SPX,23-Jan-2017,2265.2
USD-US-SPX,24-Jan-2017,2280.07
USD-US-SPX,25-Jan-2017,2298.37
USD-US-SPX,26-Jan-2017,2296.68
USD-US-SPX,27-Jan-2017,2294.69
USD-US-SPX,30-Jan-2017,2280.9
USD-US-SPX,31-Jan-2017,2278.87
USD-US-SPX,01-Feb-2017,2279.55
USD-US-SPX,02-Feb-2017,2280.85
USD-US-SPX,03-Feb-2017,2297.42
USD-US-SPX,06-Feb-2017,2292.56
USD-US-SPX,07-Feb-2017,2293.08
USD-US-SPX,08-Feb-2017,2294.67
USD-US-SPX,09-Feb-2017,2307.87
USD-US-SPX,10-Feb-2017,2316.1
USD-US-SPX,13-Feb-2017,2328.25
USD-US-SPX,14-Feb-2017,2337.58
USD-US-SPX,15-Feb-2017,2349.25
USD-US-SPX,16-Feb-2017,2347.22
USD-US-SPX,17-Feb-2017,2351.16
USD-US-SPX,20-Feb-2017,2351.16
USD-US-SPX,21-Feb-2017,2365.38
USD-US-SPX,22-Feb-2017,2362.82
USD-US-SPX,23-Feb-2017,2363.81
USD-US-SPX,24-Feb-2017,2367.34
USD-US-SPX,27-Feb-2017,2369.75
USD-US-SPX,28-Feb-2017,2363.64
USD-US-SPX,01-Mar-2017,2395.96
USD-US-SPX,02-Mar-2017,2381.92
USD-US-SPX,03-Mar-2017,2383.12
USD-US-SPX,06-Mar-2017,2375.31
USD-US-SPX,07-Mar-2017,2368.39
USD-US-SPX,08-Mar-2017,2362.98
USD-US-SPX,09-Mar-2017,2364.87
USD-US-SPX,10-Mar-2017,2372.6
USD-US-SPX,13-Mar-2017,2373.47
USD-US-SPX,14-Mar-2017,2365.45
USD-US-SPX,15-Mar-2017,2385.26
USD-US-SPX,16-Mar-2017,2381.38
USD-US-SPX,17-Mar-2017,2378.25
USD-US-SPX,20-Mar-2017,2373.47
USD-US-SPX,21-Mar-2017,2344.02
USD-US-SPX,22-Mar-2017,2348.45
USD-US-SPX,23-Mar-2017,2345.96
USD-US-SPX,24-Mar-2017,2343.98
USD-US-SPX,27-Mar-2017,2341.59
USD-US-SPX,28-Mar-2017,2358.57
USD-US-SPX,29-Mar-2017,2361.13
USD-US-SPX,30-Mar-2017,2368.06
USD-US-SPX,31-Mar-2017,2362.72
USD-US-SPX,03-Apr-2017,2358.84
USD-US-SPX,04-Apr-2017,2360.16
USD-US-SPX,05-Apr-2017,2352.95
USD-US-SPX,06-Apr-2017,2357.49
USD-US-SPX,07-Apr-2017,2355.54
USD-US-SPX,10-Apr-2017,2357.16
USD-US-SPX,11-Apr-2017,2353.78
USD-US-SPX,12-Apr-2017,2344.93
USD-US-SPX,13-Apr-2017,2328.95
USD-US-SPX,14-Apr-2017,2328.95
USD-US-SPX,17-Apr-2017,2349.01
USD-US-SPX,18-Apr-2017,2342.19
USD-US-SPX,19-Apr-2017,2338.17
USD-US-SPX,20-Apr-2017,2355.84
USD-US-SPX,21-Apr-2017,2348.69
USD-US-SPX,24-Apr-2017,2374.15
USD-US-SPX,25-Apr-2017,2388.61
USD-US-SPX,26-Apr-2017,2387.45
USD-US-SPX,27-Apr-2017,2388.77
USD-US-SPX,28-Apr-2017,2384.2
USD-US-SPX,01-May-2017,2388.33
USD-US-SPX,02-May-2017,2391.17
USD-US-SPX,03-May-2017,2388.13
USD-US-SPX,04-May-2017,2389.52
USD-US-SPX,05-May-2017,2399.29
USD-US-SPX,08-May-2017,2399.38
USD-US-SPX,09-May-2017,2396.92
USD-US-SPX,10-May-2017,2399.63
USD-US-SPX,11-May-2017,2394.44
USD-US-SPX,12-May-2017,2390.9
USD-US-SPX,15-May-2017,2402.32
USD-US-SPX,16-May-2017,2400.67
USD-US-SPX,17-May-2017,2357.03
USD-US-SPX,18-May-2017,2365.72
USD-US-SPX,19-May-2017,2381.73
USD-US-SPX,22-May-2017,2394.02
USD-US-SPX,23-May-2017,2398.42
USD-US-SPX,24-May-2017,2404.39
USD-US-SPX,25-May-2017,2415.07
USD-US-SPX,26-May-2017,2415.82
USD-US-SPX,29-May-2017,2415.82
USD-US-SPX,30-May-2017,2412.91
USD-US-SPX,31-May-2017,2411.8
USD-US-SPX,01-Jun-2017,2430.06
USD-US-SPX,02-Jun-2017,2439.07
USD-US-SPX,05-Jun-2017,2436.1
USD-US-SPX,06-Jun-2017,2429.33
USD-US-SPX,07-Jun-2017,2433.14
USD-US-SPX,08-Jun-2017,2433.79
USD-US-SPX,09-Jun-2017,2431.77
USD-US-SPX,12-Jun-2017,2429.39
USD-US-SPX,13-Jun-2017,2440.35
USD-US-SPX,14-Jun-2017,2437.92
USD-US-SPX,15-Jun-2017,2432.46
USD-US-SPX,16-Jun-2017,2433.15
USD-US-SPX,19-Jun-2017,2453.46
USD-US-SPX,20-Jun-2017,2437.03
USD-US-SPX,21-Jun-2017,2435.61
USD-US-SPX,22-Jun-2017,2434.5
USD-US-SPX,23-Jun-2017,2438.3
USD-US-SPX,26-Jun-2017,2439.07
USD-US-SPX,27-Jun-2017,2419.38
USD-US-SPX,28-Jun-2017,2440.69
USD-US-SPX,29-Jun-2017,2419.7
USD-US-SPX,30-Jun-2017,2423.41
USD-US-SPX,03-Jul-2017,2429.01
USD-US-SPX,04-Jul-2017,2429.01
USD-US-SPX,05-Jul-2017,2432.54
USD-US-SPX,06-Jul-2017,2409.75
USD-US-SPX,07-Jul-2017,2425.18
USD-US-SPX,10-Jul-2017,2427.43
USD-US-SPX,11-Jul-2017,2425.53
USD-US-SPX,12-Jul-2017,2443.25
USD-US-SPX,13-Jul-2017,2447.83
USD-US-SPX,14-Jul-2017,2459.27
USD-US-SPX,17-Jul-2017,2459.14
USD-US-SPX,18-Jul-2017,2460.61
USD-US-SPX,19-Jul-2017,2473.83
USD-US-SPX,20-Jul-2017,2473.45
USD-US-SPX,21-Jul-2017,2472.54
USD-US-SPX,24-Jul-2017,2469.91
USD-US-SPX,25-Jul-2017,2477.13
USD-US-SPX,26-Jul-2017,2477.83
USD-US-SPX,27-Jul-2017,2475.42
USD-US-SPX,28-Jul-2017,2472.1
USD-US-SPX,31-Jul-2017,2470.3
USD-US-SPX,01-Aug-2017,2476.35
USD-US-SPX,02-Aug-2017,2477.57
USD-US-SPX,03-Aug-2017,2472.16
USD-US-SPX,04-Aug-2017,2476.83
USD-US-SPX,07-Aug-2017,2480.91
USD-US-SPX,08-Aug-2017,2474.92
USD-US-SPX,09-Aug-2017,2474.02
USD-US-SPX,10-Aug-2017,2438.21
USD-US-SPX,11-Aug-2017,2441.32
USD-US-SPX,14-Aug-2017,2465.84
USD-US-SPX,15-Aug-2017,2464.61
USD-US-SPX,16-Aug-2017,2468.11
USD-US-SPX,17-Aug-2017,2430.01
USD-US-SPX,18-Aug-2017,2425.55
USD-US-SPX,21-Aug-2017,2428.37
USD-US-SPX,22-Aug-2017,2452.51
USD-US-SPX,23-Aug-2017,2444.04
USD-US-SPX,24-Aug-2017,2438.97
USD-US-SPX,25-Aug-2017,2443.05
USD-US-SPX,28-Aug-2017,2444.24
USD-US-SPX,29-Aug-2017,2446.3
USD-US-SPX,30-Aug-2017,2457.59
USD-US-SPX,31-Aug-2017,2471.65
USD-US-SPX,01-Sep-2017,2476.55
USD-US-SPX,04-Sep-2017,2476.55
USD-US-SPX,05-Sep-2017,2457.85
USD-US-SPX,06-Sep-2017,2465.54
USD-US-SPX,07-Sep-2017,2465.1
USD-US-SPX,08-Sep-2017,2461.43
USD-US-SPX,11-Sep-2017,2488.11
USD-US-SPX,12-Sep-2017,2496.48
USD-US-SPX,13-Sep-2017,2498.37
USD-US-SPX,14-Sep-2017,2495.62
USD-US-SPX,15-Sep-2017,2500.23
USD-US-SPX,18-Sep-2017,2503.87
USD-US-SPX,19-Sep-2017,2506.65
USD-US-SPX,20-Sep-2017,2508.24
USD-US-SPX,21-Sep-2017,2500.6
USD-US-SPX,22-Sep-2017,2502.22
USD-US-SPX,25-Sep-2017,2496.66
USD-US-SPX,26-Sep-2017,2496.84
USD-US-SPX,27-Sep-2017,2507.04
USD-US-SPX,28-Sep-2017,2510.06
USD-US-SPX,29-Sep-2017,2519.36
USD-US-SPX,02-Oct-2017,2529.12
USD-US-SPX,03-Oct-2017,2534.58
USD-US-SPX,04-Oct-2017,2537.74
USD-US-SPX,05-Oct-2017,2552.07
USD-US-SPX,06-Oct-2017,2549.33
USD-US-SPX,09-Oct-2017,2544.73
USD-US-SPX,10-Oct-2017,2550.64
USD-US-SPX,11-Oct-2017,2555.24
USD-US-SPX,12-Oct-2017,2550.93
USD-US-SPX,13-Oct-2017,2553.17
USD-US-SPX,16-Oct-2017,2557.64
USD-US-SPX,17-Oct-2017,2559.36
USD-US-SPX,18-Oct-2017,2561.26
USD-US-SPX,19-Oct-2017,2562.1
USD-US-SPX,20-Oct-2017,2575.21
USD-US-SPX,23-Oct-2017,2564.98
USD-US-SPX,24-Oct-2017,2569.13
USD-US-SPX,25-Oct-2017,2557.15
USD-US-SPX,26-Oct-2017,2560.4
USD-US-SPX,27-Oct-2017,2581.07
USD-US-SPX,30-Oct-2017,2572.83
USD-US-SPX,31-Oct-2017,2575.26
USD-US-SPX,01-Nov-2017,2579.36
USD-US-SPX,02-Nov-2017,2579.85
USD-US-SPX,03-Nov-2017,2587.84
USD-US-SPX,06-Nov-2017,2591.13
USD-US-SPX,07-Nov-2017,2590.64
USD-US-SPX,08-Nov-2017,2594.38
USD-US-SPX,09-Nov-2017,2584.62
USD-US-SPX,10-Nov-2017,2582.3
USD-US-SPX,13-Nov-2017,2584.84
USD-US-SPX,14-Nov-2017,2578.87
USD-US-SPX,15-Nov-2017,2564.62
USD-US-SPX,16-Nov-2017,2585.64
USD-US-SPX,17-Nov-2017,2578.85
USD-US-SPX,20-Nov-2017,2582.14
USD-US-SPX,21-Nov-2017,2599.03
USD-US-SPX,22-Nov-2017,2597.08
USD-US-SPX,23-Nov-2017,2597.08
USD-US-SPX,24-Nov-2017,2602.42
USD-US-SPX,27-Nov-2017,2601.42
USD-US-SPX,28-Nov-2017,2627.04
USD-US-SPX,29-Nov-2017,2626.07
USD-US-SPX,30-Nov-2017,2647.58
USD-US-SPX,01-Dec-2017,2642.22
USD-US-SPX,04-Dec-2017,2639.44
USD-US-SPX,05-Dec-2017,2629.57
USD-US-SPX,06-Dec-2017,2629.27
USD-US-SPX,07-Dec-2017,2636.98
USD-US-SPX,08-Dec-2017,2651.5
USD-US-SPX,11-Dec-2017,2659.99
USD-US-SPX,12-Dec-2017,2664.11
USD-US-SPX,13-Dec-2017,2662.85
USD-US-SPX,14-Dec-2017,2652.01
USD-US-SPX,15-Dec-2017,2675.81
USD-US-SPX,18-Dec-2017,2690.16
USD-US-SPX,19-Dec-2017,2681.47
USD-US-SPX,20-Dec-2017,2679.25
USD-US-SPX,21-Dec-2017,2684.57
USD-US-SPX,22-Dec-2017,2683.34
USD-US-SPX,25-Dec-2017,2683.34
USD-US-SPX,26-Dec-2017,2680.5
USD-US-SPX,27-Dec-2017,2682.62
USD-US-SPX,28-Dec-2017,2687.54
USD-US-SPX,29-Dec-2017,2673.61
USD-US-SPX,01-Jan-2018,2673.61
USD-US-SPX,02-Jan-2018,2695.81
USD-US-SPX,03-Jan-2018,2713.06
USD-US-SPX,04-Jan-2018,2723.99
USD-US-SPX,05-Jan-2018,2743.15
USD-US-SPX,08-Jan-2018,2747.71
USD-US-SPX,09-Jan-2018,2751.29
USD-US-SPX,10-Jan-2018,2748.23
USD-US-SPX,11-Jan-2018,2767.56
USD-US-SPX,12-Jan-2018,2786.24
USD-US-SPX,15-Jan-2018,2786.24
USD-US-SPX,16-Jan-2018,2776.42
USD-US-SPX,17-Jan-2018,2802.56
USD-US-SPX,18-Jan-2018,2798.03
USD-US-SPX,19-Jan-2018,2810.3
USD-US-SPX,22-Jan-2018,2832.97
USD-US-SPX,23-Jan-2018,2839.13
USD-US-SPX,24-Jan-2018,2837.54
USD-US-SPX,25-Jan-2018,2839.25
USD-US-SPX,26-Jan-2018,2872.87
USD-US-SPX,29-Jan-2018,2853.53
USD-US-SPX,30-Jan-2018,2822.43
USD-US-SPX,31-Jan-2018,2823.81
USD-US-SPX,01-Feb-2018,2821.98
USD-US-SPX,02-Feb-2018,2762.13
USD-US-SPX,05-Feb-2018,2648.94
USD-US-SPX,06-Feb-2018,2695.14
USD-US-SPX,07-Feb-2018,2681.66
USD-US-SPX,08-Feb-2018,2581.0
USD-US-SPX,09-Feb-2018,2619.55
USD-US-SPX,12-Feb-2018,2656.0
USD-US-SPX,13-Feb-2018,2662.94
USD-US-SPX,14-Feb-2018,2698.63
USD-US-SPX,15-Feb-2018,2731.2
USD-US-SPX,16-Feb-2018,2732.22
USD-US-SPX,19-Feb-2018,2732.22
USD-US-SPX,20-Feb-2018,2716.26
USD-US-SPX,21-Feb-2018,2701.33
USD-US-SPX,22-Feb-2018,2703.96
USD-US-SPX,23-Feb-2018,2747.3
USD-US-SPX,26-Feb-2018,2779.6
USD-US-SPX,27-Feb-2018,2744.28
USD-US-SPX,28-Feb-2018,2713.83
USD-US-SPX,01-Mar-2018,2677.67
USD-US-SPX,02-Mar-2018,2691.25
USD-US-SPX,05-Mar-2018,2720.94
USD-US-SPX,06-Mar-2018,2728.12
USD-US-SPX,07-Mar-2018,2726.8
USD-US-SPX,08-Mar-2018,2738.97
USD-US-SPX,09-Mar-2018,2786.57
USD-US-SPX,12-Mar-2018,2783.02
USD-US-SPX,13-Mar-2018,2765.31
USD-US-SPX,14-Mar-2018,2749.48
USD-US-SPX,15-Mar-2018,2747.33
USD-US-SPX,16-Mar-2018,2752.01
USD-US-SPX,19-Mar-2018,2712.92
USD-US-SPX,20-Mar-2018,2716.94
USD-US-SPX,21-Mar-2018,2711.93
USD-US-SPX,22-Mar-2018,2643.69
USD-US-SPX,23-Mar-2018,2588.26
USD-US-SPX,26-Mar-2018,2658.55
USD-US-SPX,27-Mar-2018,2612.62
USD-US-SPX,28-Mar-2018,2605.0
USD-US-SPX,29-Mar-2018,2640.87
USD-US-SPX,30-Mar-2018,2640.87
USD-US-SPX,02-Apr-2018,2581.88
USD-US-SPX,03-Apr-2018,2614.45
USD-US-SPX,04-Apr-2018,2644.69
USD-US-SPX,05-Apr-2018,2662.84
USD-US-SPX,06-Apr-2018,2604.47
USD-US-SPX,09-Apr-2018,2613.16
USD-US-SPX,10-Apr-2018,2656.87
USD-US-SPX,11-Apr-2018,2642.19
USD-US-SPX,12-Apr-2018,2663.99
USD-US-SPX,13-Apr-2018,2656.3
USD-US-SPX,16-Apr-2018,2677.84
USD-US-SPX,17-Apr-2018,2706.39
USD-US-SPX,18-Apr-2018,2708.64
USD-US-SPX,19-Apr-2018,2693.13
USD-US-SPX,20-Apr-2018,2670.14
USD-US-SPX,23-Apr-2018,2670.29
USD-US-SPX,24-Apr-2018,2634.56
USD-US-SPX,25-Apr-2018,2639.4
USD-US-SPX,26-Apr-2018,2666.94
USD-US-SPX,27-Apr-2018,2669.91
USD-US-SPX,30-Apr-2018,2648.05
USD-US-SPX,01-May-2018,2654.8
USD-US-SPX,02-May-2018,2635.67
USD-US-SPX,03-May-2018,2629.73
USD-US-SPX,04-May-2018,2663.42
USD-US-SPX,07-May-2018,2672.63
USD-US-SPX,08-May-2018,2671.92
USD-US-SPX,09-May-2018,2697.79
USD-US-SPX,10-May-2018,2723.07
USD-US-SPX,11-May-2018,2727.72
USD-US-SPX,14-May-2018,2730.13
USD-US-SPX,15-May-2018,2711.45
USD-US-SPX,16-May-2018,2722.46
USD-US-SPX,17-May-2018,2720.13
USD-US-SPX,18-May-2018,2712.97
USD-US-SPX,21-May-2018,2733.01
USD-US-SPX,22-May-2018,2724.44
USD-US-SPX,23-May-2018,2733.29
USD-US-SPX,24-May-2018,2727.76
USD-US-SPX,25-May-2018,2721.33
USD-US-SPX,28-May-2018,2721.33
USD-US-SPX,29-May-2018,2689.86
USD-US-SPX,30-May-2018,2724.01
USD-US-SPX,31-May-2018,2705.27
USD-US-SPX,01-Jun-2018,2734.62
USD-US-SPX,04-Jun-2018,2746.87
USD-US-SPX,05-Jun-2018,2748.8
USD-US-SPX,06-Jun-2018,2772.35
USD-US-SPX,07-Jun-2018,2770.37
USD-US-SPX,08-Jun-2018,2779.03
USD-US-SPX,11-Jun-2018,2782.0
USD-US-SPX,12-Jun-2018,2786.85
USD-US-SPX,13-Jun-2018,2775.63
USD-US-SPX,14-Jun-2018,2782.49
USD-US-SPX,15-Jun-2018,2779.66
USD-US-SPX,18-Jun-2018,2773.75
USD-US-SPX,19-Jun-2018,2762.59
USD-US-SPX,20-Jun-2018,2767.32
USD-US-SPX,21-Jun-2018,2749.76
USD-US-SPX,22-Jun-2018,2754.88
USD-US-SPX,25-Jun-2018,2717.07
USD-US-SPX,26-Jun-2018,2723.06
USD-US-SPX,27-Jun-2018,2699.63
USD-US-SPX,28-Jun-2018,2716.31
USD-US-SPX,29-Jun-2018,2718.37
USD-US-SPX,02-Jul-2018,2726.71
USD-US-SPX,03-Jul-2018,2713.22
USD-US-SPX,04-Jul-2018,2713.22
USD-US-SPX,05-Jul-2018,2736.61
USD-US-SPX,06-Jul-2018,2759.82
USD-US-SPX,09-Jul-2018,2784.17
USD-US-SPX,10-Jul-2018,2793.84
USD-US-SPX,11-Jul-2018,2774.02
USD-US-SPX,12-Jul-2018,2798.29
USD-US-SPX,13-Jul-2018,2801.31
USD-US-SPX,16-Jul-2018,2798.43
USD-US-SPX,17-Jul-2018,2809.55
USD-US-SPX,18-Jul-2018,2815.62
USD-US-SPX,19-Jul-2018,2804.49
USD-US-SPX,20-Jul-2018,2801.83
USD-US-SPX,23-Jul-2018,2806.98
USD-US-SPX,24-Jul-2018,2820.4
USD-US-SPX,25-Jul-2018,2846.07
USD-US-SPX,26-Jul-2018,2837.44
USD-US-SPX,27-Jul-2018,2818.82
USD-US-SPX,30-Jul-2018,2802.6
USD-US-SPX,31-Jul-2018,2816.29
USD-US-SPX,01-Aug-2018,2813.36
USD-US-SPX,02-Aug-2018,2827.22
USD-US-SPX,03-Aug-2018,2840.35
USD-US-SPX,06-Aug-2018,2850.4
USD-US-SPX,07-Aug-2018,2858.45
USD-US-SPX,08-Aug-2018,2857.7
USD-US-SPX,09-Aug-2018,2853.58
USD-US-SPX,10-Aug-2018,2833.28
USD-US-SPX,13-Aug-2018,2821.93
USD-US-SPX,14-Aug-2018,2839.96
USD-US-SPX,15-Aug-2018,2818.37
USD-US-SPX,16-Aug-2018,2840.69
USD-US-SPX,17-Aug-2018,2850.13
USD-US-SPX,20-Aug-2018,2857.05
USD-US-SPX,21-Aug-2018,2862.96
USD-US-SPX,22-Aug-2018,2861.82
USD-US-SPX,23-Aug-2018,2856.98
USD-US-SPX,24-Aug-2018,2874.69
USD-US-SPX,27-Aug-2018,2896.74
USD-US-SPX,28-Aug-2018,2897.52
USD-US-SPX,29-Aug-2018,2914.04
USD-US-SPX,30-Aug-2018,2901.13
USD-US-SPX,31-Aug-2018,2901.52
USD-US-SPX,03-Sep-2018,2901.52
USD-US-SPX,04-Sep-2018,2896.72
USD-US-SPX,05-Sep-2018,2888.6
USD-US-SPX,06-Sep-2018,2878.05
USD-US-SPX,07-Sep-2018,2871.68
USD-US-SPX,10-Sep-2018,2877.13
USD-US-SPX,11-Sep-2018,2887.89
USD-US-SPX,12-Sep-2018,2888.92
USD-US-SPX,13-Sep-2018,2904.18
USD-US-SPX,14-Sep-2018,2904.98
USD-US-SPX,17-Sep-2018,2888.8
USD-US-SPX,18-Sep-2018,2904.31
USD-US-SPX,19-Sep-2018,2907.95
USD-US-SPX,20-Sep-2018,2930.75
USD-US-SPX,21-Sep-2018,2929.67
USD-US-SPX,24-Sep-2018,2919.37
USD-US-SPX,25-Sep-2018,2915.56
USD-US-SPX,26-Sep-2018,2905.97
USD-US-SPX,27-Sep-2018,2914.0
USD-US-SPX,28-Sep-2018,2913.98
USD-US-SPX,01-Oct-2018,2924.59
USD-US-SPX,02-Oct-2018,2923.43
USD-US-SPX,03-Oct-2018,2925.51
USD-US-SPX,04-Oct-2018,2901.61
USD-US-SPX,05-Oct-2018,2885.57
USD-US-SPX,08-Oct-2018,2884.43
USD-US-SPX,09-Oct-2018,2880.34
USD-US-SPX,10-Oct-2018,2785.68
USD-US-SPX,11-Oct-2018,2728.37
USD-US-SPX,12-Oct-2018,2767.13
USD-US-SPX,15-Oct-2018,2750.79
USD-US-SPX,16-Oct-2018,2809.92
USD-US-SPX,17-Oct-2018,2809.21
USD-US-SPX,18-Oct-2018,2768.78
USD-US-SPX,19-Oct-2018,2767.78
USD-US-SPX,22-Oct-2018,2755.88
USD-US-SPX,23-Oct-2018,2740.69
USD-US-SPX,24-Oct-2018,2656.1
USD-US-SPX,25-Oct-2018,2705.57
USD-US-SPX,26-Oct-2018,2658.69
USD-US-SPX,29-Oct-2018,2641.25
USD-US-SPX,30-Oct-2018,2682.63
USD-US-SPX,31-Oct-2018,2711.74
USD-US-SPX,01-Nov-2018,2740.37
USD-US-SPX,02-Nov-2018,2723.06
USD-US-SPX,05-Nov-2018,2738.31
USD-US-SPX,06-Nov-2018,2755.45
USD-US-SPX,07-Nov-2018,2813.89
USD-US-SPX,08-Nov-2018,2806.83
USD-US-SPX,09-Nov-2018,2781.01
USD-US-SPX,12-Nov-2018,2726.22
USD-US-SPX,13-Nov-2018,2722.18
USD-US-SPX,14-Nov-2018,2701.58
USD-US-SPX,15-Nov-2018,2730.2
USD-US-SPX,16-Nov-2018,2736.27
USD-US-SPX,19-Nov-2018,2690.73
USD-US-SPX,20-Nov-2018,2641.89
USD-US-SPX,21-Nov-2018,2649.93
USD-US-SPX,22-Nov-2018,2649.93
USD-US-SPX,23-Nov-2018,2632.56
USD-US-SPX,26-Nov-2018,2673.45
USD-US-SPX,27-Nov-2018,2682.17
USD-US-SPX,28-Nov-2018,2743.79
USD-US-SPX,29-Nov-2018,2737.76
USD-US-SPX,30-Nov-2018,2760.17
USD-US-SPX,03-Dec-2018,2790.37
USD-US-SPX,04-Dec-2018,2700.06
USD-US-SPX,05-Dec-2018,2700.06
USD-US-SPX,06-Dec-2018,2695.95
USD-US-SPX,07-Dec-2018,2633.08
USD-US-SPX,10-Dec-2018,2637.72
USD-US-SPX,11-Dec-2018,2636.78
USD-US-SPX,12-Dec-2018,2651.07
USD-US-SPX,13-Dec-2018,2650.54
USD-US-SPX,14-Dec-2018,2599.95
USD-US-SPX,17-Dec-2018,2545.94
USD-US-SPX,18-Dec-2018,2546.16
USD-US-SPX,19-Dec-2018,2506.96
USD-US-SPX,20-Dec-2018,2467.42
USD-US-SPX,21-Dec-2018,2416.62
USD-US-SPX,24-Dec-2018,2351.1
USD-US-SPX,25-Dec-2018,2351.1
USD-US-SPX,26-Dec-2018,2467.7
USD-US-SPX,27-Dec-2018,2488.83
USD-US-SPX,28-Dec-2018,2485.74
USD-US-SPX,31-Dec-2018,2506.85
USD-US-SPX,01-Jan-2019,2506.85
USD-US-SPX,02-Jan-2019,2510.03
USD-US-SPX,03-Jan-2019,2447.89
USD-US-SPX,04-Jan-2019,2531.94
USD-US-SPX,07-Jan-2019,2549.69
USD-US-SPX,08-Jan-2019,2574.41
USD-US-SPX,09-Jan-2019,2584.96
USD-US-SPX,10-Jan-2019,2596.64
USD-US-SPX,11-Jan-2019,2596.26
USD-US-SPX,14-Jan-2019,2582.61
USD-US-SPX,15-Jan-2019,2610.3
USD-US-SPX,16-Jan-2019,2616.1
USD-US-SPX,17-Jan-2019,2635.96
USD-US-SPX,18-Jan-2019,2670.71
USD-US-SPX,21-Jan-2019,2670.71
USD-US-SPX,22-Jan-2019,2632.9
USD-US-SPX,23-Jan-2019,2638.7
USD-US-SPX,24-Jan-2019,2642.33
USD-US-SPX,25-Jan-2019,2664.76
USD-US-SPX,28-Jan-2019,2643.85
USD-US-SPX,29-Jan-2019,2640.0
USD-US-SPX,30-Jan-2019,2681.05
USD-US-SPX,31-Jan-2019,2704.1
USD-US-SPX,01-Feb-2019,2706.53
USD-US-SPX,04-Feb-2019,2724.87
USD-US-SPX,05-Feb-2019,2737.7
USD-US-SPX,06-Feb-2019,2731.61
USD-US-SPX,07-Feb-2019,2706.05
USD-US-SPX,08-Feb-2019,2707.88
USD-US-SPX,11-Feb-2019,2709.8
USD-US-SPX,12-Feb-2019,2744.73
USD-US-SPX,13-Feb-2019,2753.03
USD-US-SPX,14-Feb-2019,2745.73
USD-US-SPX,15-Feb-2019,2775.6
USD-US-SPX,19-Feb-2019,2779.76
USD-US-SPX,20-Feb-2019,2784.7
USD-US-SPX,21-Feb-2019,2774.88
USD-US-SPX,22-Feb-2019,2792.67
USD-US-SPX,25-Feb-2019,2796.11
USD-US-SPX,26-Feb-2019,2793.9
USD-US-SPX,27-Feb-2019,2792.38
USD-US-SPX,28-Feb-2019,2784.49
USD-US-SPX,01-Mar-2019,2803.69
USD-US-SPX,04-Mar-2019,2792.81
USD-US-SPX,05-Mar-2019,2789.65
USD-US-SPX,06-Mar-2019,2771.45
USD-US-SPX,07-Mar-2019,2748.93
USD-US-SPX,08-Mar-2019,2743.07
USD-US-SPX,11-Mar-2019,2783.3
USD-US-SPX,12-Mar-2019,2791.52
USD-US-SPX,13-Mar-2019,2810.92
USD-US-SPX,14-Mar-2019,2808.48
USD-US-SPX,15-Mar-2019,2822.48
USD-US-SPX,18-Mar-2019,2832.94
USD-US-SPX,19-Mar-2019,2832.57
USD-US-SPX,20-Mar-2019,2824.23
USD-US-SPX,21-Mar-2019,2854.88
USD-US-SPX,22-Mar-2019,2800.71
USD-US-SPX,25-Mar-2019,2798.36
USD-US-SPX,26-Mar-2019,2818.46
USD-US-SPX,27-Mar-2019,2805.37
USD-US-SPX,28-Mar-2019,2815.44
USD-US-SPX,29-Mar-2019,2834.4
USD-US-SPX,01-Apr-2019,2867.19
USD-US-SPX,02-Apr-2019,2867.24
USD-US-SPX,03-Apr-2019,2873.4
USD-US-SPX,04-Apr-2019,2879.39
USD-US-SPX,05-Apr-2019,2892.74
USD-US-SPX,08-Apr-2019,2895.77
USD-US-SPX,09-Apr-2019,2878.2
USD-US-SPX,10-Apr-2019,2888.21
USD-US-SPX,11-Apr-2019,2888.32
USD-US-SPX,12-Apr-2019,2907.41
USD-US-SPX,15-Apr-2019,2905.58
USD-US-SPX,16-Apr-2019,2907.06
USD-US-SPX,17-Apr-2019,2900.45
USD-US-SPX,18-Apr-2019,2905.03
USD-US-SPX,22-Apr-2019,2907.97
USD-US-SPX,23-Apr-2019,2933.68
USD-US-SPX,24-Apr-2019,2927.25
USD-US-SPX,25-Apr-2019,2926.17
USD-US-SPX,26-Apr-2019,2939.88
USD-US-SPX,29-Apr-2019,2943.03
USD-US-SPX,30-Apr-2019,2945.83
USD-US-SPX,01-May-2019,2923.73
USD-US-SPX,02-May-2019,2917.52
USD-US-SPX,03-May-2019,2945.64
USD-US-SPX,06-May-2019,2932.47
USD-US-SPX,07-May-2019,2884.05
USD-US-SPX,08-May-2019,2879.42
USD-US-SPX,09-May-2019,2870.72
USD-US-SPX,10-May-2019,2881.4
USD-US-SPX,13-May-2019,2811.87
USD-US-SPX,14-May-2019,2834.41
USD-US-SPX,15-May-2019,2850.96
USD-US-SPX,16-May-2019,2876.32
USD-US-SPX,17-May-2019,2859.53
USD-US-SPX,20-May-2019,2840.23
USD-US-SPX,21-May-2019,2864.36
USD-US-SPX,22-May-2019,2856.27
USD-US-SPX,23-May-2019,2822.24
USD-US-SPX,24-May-2019,2826.06
USD-US-SPX,28-May-2019,2802.39
USD-US-SPX,29-May-2019,2783.02
USD-US-SPX,30-May-2019,2788.86
USD-US-SPX,31-May-2019,2752.06
USD-US-SPX,03-Jun-2019,2744.45
USD-US-SPX,04-Jun-2019,2803.27
USD-US-SPX,05-Jun-2019,2826.15
USD-US-SPX,06-Jun-2019,2843.49
USD-US-SPX,07-Jun-2019,2873.34
USD-US-SPX,10-Jun-2019,2886.73
USD-US-SPX,11-Jun-2019,2885.72
USD-US-SPX,12-Jun-2019,2879.84
USD-US-SPX,13-Jun-2019,2891.64
USD-US-SPX,14-Jun-2019,2886.98
USD-US-SPX,17-Jun-2019,2889.67
USD-US-SPX,18-Jun-2019,2917.75
USD-US-SPX,19-Jun-2019,2926.46
USD-US-SPX,20-Jun-2019,2954.18
USD-US-SPX,21-Jun-2019,2950.46
USD-US-SPX,24-Jun-2019,2945.35
USD-US-SPX,25-Jun-2019,2917.38
USD-US-SPX,26-Jun-2019,2913.78
USD-US-SPX,27-Jun-2019,2924.92
USD-US-SPX,28-Jun-2019,2941.76
USD-US-SPX,01-Jul-2019,2964.33
USD-US-SPX,02-Jul-2019,2973.01
USD-US-SPX,03-Jul-2019,2995.82
USD-US-SPX,05-Jul-2019,2990.41
USD-US-SPX,08-Jul-2019,2975.95
USD-US-SPX,09-Jul-2019,2979.63
USD-US-SPX,10-Jul-2019,2993.07
USD-US-SPX,11-Jul-2019,2999.91
USD-US-SPX,12-Jul-2019,3013.77
USD-US-SPX,15-Jul-2019,3014.3
USD-US-SPX,16-Jul-2019,3004.04
USD-US-SPX,17-Jul-2019,2984.42
USD-US-SPX,18-Jul-2019,2995.11
USD-US-SPX,19-Jul-2019,2976.61
USD-US-SPX,22-Jul-2019,2985.03
USD-US-SPX,23-Jul-2019,3005.47
USD-US-SPX,24-Jul-2019,3019.56
USD-US-SPX,25-Jul-2019,3003.67
USD-US-SPX,26-Jul-2019,3025.86
USD-US-SPX,29-Jul-2019,3020.97
USD-US-SPX,30-Jul-2019,3013.18
USD-US-SPX,31-Jul-2019,2980.38
USD-US-SPX,31-Oct-2019,3378.05583781614
USD-US-SPX,31-Jan-2020,3396.765797989768
USD-US-SPX,30-Apr-2020,3474.0317952198006
USD-US-SPX,31-Jul-2020,3693.278077303363
USD-US-SPX,30-Oct-2020,3772.035688511621
USD-US-SPX,29-Jan-2021,3921.76525328592
USD-US-SPX,30-Apr-2021,4083.8393595995485
USD-US-SPX,30-Jul-2021,3404.741445120914
USD-US-SPX,29-Oct-2021,2802.179561655404
USD-US-SPX,31-Jan-2022,2841.720467344265
USD-US-SPX,29-Apr-2022,2785.1931172607583
USD-US-SPX,29-Jul-2022,2768.9516702356473
USD-US-SPX,31-Oct-2022,2617.612318469032
USD-US-SPX,31-Jan-2023,2511.3554743033133
USD-US-SPX,28-Apr-2023,2326.3346671891763
USD-US-SPX,31-Jul-2023,2441.840202997517
USD-US-SPX,31-Oct-2023,1707.266205620252
USD-US-SPX,31-Jan-2024,1901.7572734926334
USD-US-SPX,30-Apr-2024,2072.1183065457853
USD-US-SPX,31-Jul-2024,2133.208798916523
USD-US-SPX,31-Oct-2024,2210.644278317193
USD-US-SPX,31-Jan-2025,2092.5201349714353
USD-US-SPX,30-Apr-2025,2102.634163642209
USD-US-SPX,31-Jul-2025,2106.1899450974174
USD-US-SPX,31-Oct-2025,2111.0045310290943
USD-US-SPX,30-Jan-2026,2150.0466985406283
USD-US-SPX,30-Apr-2026,2191.44913514243
USD-US-SPX,31-Jul-2026,2298.5847903106883
USD-US-SPX,30-Oct-2026,2206.2136412631235
USD-US-SPX,29-Jan-2027,2252.475739519197
USD-US-SPX,30-Apr-2027,2032.8194500558739
USD-US-SPX,30-Jul-2027,1858.2002592960744
USD-US-SPX,29-Oct-2027,1971.282576523552
USD-US-SPX,31-Jan-2028,1962.3990053914267
USD-US-SPX,28-Apr-2028,1878.7392335681598
USD-US-SPX,31-Jul-2028,1926.5437233064738
USD-US-SPX,31-Oct-2028,1747.3829903657509
USD-US-SPX,31-Jan-2029,1573.59036801403
USD-US-SPX,30-Apr-2029,1565.5197943838125
USD-US-SPX,31-Jul-2029,1531.341125142777
USD-US-SPX,31-Oct-2029,1772.345652602902
USD-US-SPX,31-Jan-2030,1756.4298947082082
USD-US-SPX,30-Apr-2030,1704.5138913994099
USD-US-SPX,31-Jul-2030,1729.3751452384574
USD-US-SPX,31-Oct-2030,1880.299657981081
USD-US-SPX,31-Jan-2031,1861.2466097512533
USD-US-SPX,30-Apr-2031,2009.1647207918647
USD-US-SPX,31-Jul-2031,2174.314982800604
USD-US-SPX,31-Oct-2031,2393.9281648169417
USD-US-SPX,30-Jan-2032,2363.075570536221
USD-US-SPX,30-Apr-2032,2401.6257550930004
USD-US-SPX,30-Jul-2032,2602.869680234547
USD-US-SPX,29-Oct-2032,2457.290757354141
USD-US-SPX,31-Jan-2033,2325.052525128056
USD-US-SPX,29-Apr-2033,2271.428155403
USD-US-SPX,29-Jul-2033,2259.695418080492
USD-US-SPX,31-Oct-2033,1950.6020990371387
USD-US-SPX,31-Jan-2034,1892.118370564172
USD-US-SPX,28-Apr-2034,1964.5605234794332
USD-US-SPX,31-Jul-2034,1974.964162167521
USD-US-SPX,31-Oct-2034,2035.0110140283098
USD-US-SPX,31-Jan-2035,2045.697255725131
USD-US-SPX,30-Apr-2035,2067.543643355801
USD-US-SPX,31-Jul-2035,2029.566273939279
USD-US-SPX,31-Oct-2035,1922.0794475544144
USD-US-SPX,31-Jan-2036,1952.8592530220585
USD-US-SPX,30-Apr-2036,1968.323402551868
USD-US-SPX,31-Jul-2036,2186.0210475470058
USD-US-SPX,31-Oct-2036,1979.4617830217258
USD-US-SPX,30-Jan-2037,1945.925210998014
USD-US-SPX,30-Apr-2037,2080.5028786174885
USD-US-SPX,31-Jul-2037,2261.748439665283
USD-US-SPX,30-Oct-2037,2351.007568318707
USD-US-SPX,29-Jan-2038,2614.812044567044
USD-US-SPX,30-Apr-2038,2797.137290122116
USD-US-SPX,30-Jul-2038,2603.625889162301
USD-US-SPX,29-Oct-2038,2966.8628478769538
USD-US-SPX,31-Jan-2039,2946.5218789481783
USD-US-SPX,29-Apr-2039,2920.5142768832015
USD-US-SPX,29-Jul-2039,2669.300587241453
USD-US-SPX,31-Oct-2039,2503.096807728812
USD-US-SPX,31-Jan-2040,2273.481604968669
USD-US-SPX,30-Apr-2040,2523.8511652389375
USD-US-SPX,31-Jul-2040,2284.3016591585274
USD-US-SPX,31-Oct-2040,2487.8671352696915
USD-US-SPX,31-Jan-2041,2688.6240909814665
USD-US-SPX,30-Apr-2041,2364.5047999485632
USD-US-SPX,31-Jul-2041,2314.4808564063774
USD-US-SPX,31-Oct-2041,2351.5792303023527
USD-US-SPX,31-Jan-2042,2536.495385590829
USD-US-SPX,30-Apr-2042,2646.803678926252
USD-US-SPX,31-Jul-2042,2942.453817594527
USD-US-SPX,31-Oct-2042,3255.1631559084617
USD-US-SPX,30-Jan-2043,3363.876640596473
USD-US-SPX,30-Apr-2043,3233.417747374608
USD-US-SPX,31-Jul-2043,3540.754718611937
USD-US-SPX,30-Oct-2043,3706.9502174590493
USD-US-SPX,29-Jan-2044,3980.4138292525645
USD-US-SPX,29-Apr-2044,3923.118860981605
USD-US-SPX,29-Jul-2044,3848.0308642185128
USD-US-SPX,31-Oct-2044,3724.458337190153
USD-US-SPX,31-Jan-2045,3995.615712618072
USD-US-SPX,28-Apr-2045,4265.168774906397
USD-US-SPX,31-Jul-2045,3833.7130324373484
USD-US-SPX,31-Oct-2045,3591.1672236838604
USD-US-SPX,31-Jan-2046,3628.1744568967947
USD-US-SPX,30-Apr-2046,3691.0842590794955
USD-US-SPX,31-Jul-2046,3709.824931057519
USD-US-SPX,31-Oct-2046,3140.8416060839913
USD-US-SPX,31-Jan-2047,3219.2130856404924
USD-US-SPX,30-Apr-2047,3263.077069093308
USD-US-SPX,31-Jul-2047,3394.8974501443226
USD-US-SPX,31-Oct-2047,3435.2775859743188
USD-US-SPX,31-Jan-2048,3574.720941233435
USD-US-SPX,30-Apr-2048,3694.7630267342724
USD-US-SPX,31-Jul-2048,3757.894289806017
USD-US-SPX,30-Oct-2048,4379.2269480085715
USD-US-SPX,29-Jan-2049,4328.767305500143
USD-US-SPX,30-Apr-2049,4402.3934515582205
USD-US-SPX,30-Jul-2049,4202.884561255126
